ALLCODEHERE/visualizer/image_sprite.vcd
$date
	Wed Dec 13 21:54:40 2023
$end
$version
	Icarus Verilog
$end
$timescale
	1ps
$end
$scope module image_sprite_tb $end
$var wire 8 ! red_out [7:0] $end
$var wire 8 " green_out [7:0] $end
$var wire 8 # blue_out [7:0] $end
$var reg 11 $ hcount_in [10:0] $end
$var reg 6 % letter [5:0] $end
$var reg 1 & pixel_clk_in $end
$var reg 1 ' rst_in $end
$scope module uut $end
$var wire 11 ( hcount_in [10:0] $end
$var wire 1 & pixel_clk_in $end
$var wire 1 ' rst_in $end
$var wire 6 ) select_letter [5:0] $end
$var wire 10 * vcount_in [9:0] $end
$var wire 11 + x_in [10:0] $end
$var wire 10 , y_in [9:0] $end
$var wire 8 - red_out [7:0] $end
$var wire 14 . image_addr [13:0] $end
$var wire 8 / green_out [7:0] $end
$var wire 1 0 color $end
$var wire 8 1 blue_out [7:0] $end
$var parameter 32 2 HEIGHT $end
$var parameter 32 3 RAM1_DEPTH $end
$var parameter 32 4 RAM1_WIDTH $end
$var parameter 32 5 WIDTH $end
$var reg 1 6 in_sprite_x $end
$var reg 1 7 in_sprite_y $end
$var integer 32 8 column_state [31:0] $end
$var integer 32 9 row_state [31:0] $end
$scope module memory1 $end
$var wire 14 : addra [13:0] $end
$var wire 1 & clka $end
$var wire 1 ; dina $end
$var wire 1 < ena $end
$var wire 1 = regcea $end
$var wire 1 ' rsta $end
$var wire 1 > wea $end
$var wire 1 0 douta $end
$var parameter 184 ? INIT_FILE $end
$var parameter 32 @ RAM_DEPTH $end
$var parameter 128 A RAM_PERFORMANCE $end
$var parameter 32 B RAM_WIDTH $end
$var reg 1 C ram_data $end
$scope function clogb2 $end
$var integer 32 D depth [31:0] $end
$upscope $end
$scope begin output_register $end
$var reg 1 0 douta_reg $end
$upscope $end
$scope begin use_init_file $end
$upscope $end
$upscope $end
$upscope $end
$upscope $end
$enddefinitions $end
$comment Show the parameter values. $end
$dumpall
b1 B
b1001000010010010100011101001000010111110101000001000101010100100100011001001111010100100100110101000001010011100100001101000101 A
b10011000011110 @
b110010001100001011101000110000100101111001011100010111000101111011001000110000101110100011000010010111101101001011011010110000101100111011001010011001000101110011011010110010101101101 ?
b1110111 5
b1 4
b10011000011110 3
b1010010 2
$end
#0
$dumpvars
bx D
0C
0>
1=
1<
0;
b101001010011 :
b0 9
b0 8
07
06
b0 1
00
b0 /
b101001010011 .
b0 -
b100000000 ,
b100000000 +
b101 *
b0 )
b0 (
0'
0&
b0 %
b0 $
b0 #
b0 "
b0 !
$end
#5000
xC
1&
#10000
0&
1'
#15000
1&
#20000
0&
0'
#25000
x0
1&
#30000
0&
#35000
1&
#40000
b101001010100 .
b101001010100 :
0&
b1 $
b1 (
#45000
1&
#50000
b101001010101 .
b101001010101 :
0&
b10 $
b10 (
#55000
1&
#60000
b101001010110 .
b101001010110 :
0&
b11 $
b11 (
#65000
1&
#70000
b101001010111 .
b101001010111 :
0&
b100 $
b100 (
#75000
1&
#80000
b101001011000 .
b101001011000 :
0&
b101 $
b101 (
#85000
1&
#90000
b101001011001 .
b101001011001 :
0&
b110 $
b110 (
#95000
1&
#100000
b101001011010 .
b101001011010 :
0&
b111 $
b111 (
#105000
1&
#110000
b101001011011 .
b101001011011 :
0&
b1000 $
b1000 (
#115000
1&
#120000
b101001011100 .
b101001011100 :
0&
b1001 $
b1001 (
#125000
1&
#130000
b101001011101 .
b101001011101 :
0&
b1010 $
b1010 (
#135000
1&
#140000
b101001011110 .
b101001011110 :
0&
b1011 $
b1011 (
#145000
1&
#150000
b101001011111 .
b101001011111 :
0&
b1100 $
b1100 (
#155000
1&
#160000
b101001100000 .
b101001100000 :
0&
b1101 $
b1101 (
#165000
1&
#170000
b101001100001 .
b101001100001 :
0&
b1110 $
b1110 (
#175000
1&
#180000
b101001100010 .
b101001100010 :
0&
b1111 $
b1111 (
#185000
1&
#190000
b101001100011 .
b101001100011 :
0&
b10000 $
b10000 (
#195000
1&
#200000
b101001100100 .
b101001100100 :
0&
b10001 $
b10001 (
#205000
1&
#210000
b101001100101 .
b101001100101 :
0&
b10010 $
b10010 (
#215000
1&
#220000
b101001100110 .
b101001100110 :
0&
b10011 $
b10011 (
#225000
1&
#230000
b101001100111 .
b101001100111 :
0&
b10100 $
b10100 (
#235000
1&
#240000
b101001101000 .
b101001101000 :
0&
b10101 $
b10101 (
#245000
1&
#250000
b101001101001 .
b101001101001 :
0&
b10110 $
b10110 (
#255000
1&
#260000
b101001101010 .
b101001101010 :
0&
b10111 $
b10111 (
#265000
1&
#270000
b101001101011 .
b101001101011 :
0&
b11000 $
b11000 (
#275000
1&
#280000
b101001101100 .
b101001101100 :
0&
b11001 $
b11001 (
#285000
1&
#290000
b101001101101 .
b101001101101 :
0&
b11010 $
b11010 (
#295000
1&
#300000
b101001101110 .
b101001101110 :
0&
b11011 $
b11011 (
#305000
1&
#310000
b101001101111 .
b101001101111 :
0&
b11100 $
b11100 (
#315000
1&
#320000
b101001110000 .
b101001110000 :
0&
b11101 $
b11101 (
#325000
1&
#330000
b101001110001 .
b101001110001 :
0&
b11110 $
b11110 (
#335000
1&
#340000
b101001110010 .
b101001110010 :
0&
b11111 $
b11111 (
#345000
1&
#350000
b101001110011 .
b101001110011 :
0&
b100000 $
b100000 (
#355000
1&
#360000
b101001110100 .
b101001110100 :
0&
b100001 $
b100001 (
#365000
1&
#370000
b101001110101 .
b101001110101 :
0&
b100010 $
b100010 (
#375000
1&
#380000
b101001110110 .
b101001110110 :
0&
b100011 $
b100011 (
#385000
1&
#390000
b101001110111 .
b101001110111 :
0&
b100100 $
b100100 (
#395000
1&
#400000
b101001111000 .
b101001111000 :
0&
b100101 $
b100101 (
#405000
1&
#410000
b101001111001 .
b101001111001 :
0&
b100110 $
b100110 (
#415000
1&
#420000
b101001111010 .
b101001111010 :
0&
b100111 $
b100111 (
#425000
1&
#430000
b101001111011 .
b101001111011 :
0&
b101000 $
b101000 (
#435000
1&
#440000
b101001111100 .
b101001111100 :
0&
b101001 $
b101001 (
#445000
1&
#450000
b101001111101 .
b101001111101 :
0&
b101010 $
b101010 (
#455000
1&
#460000
b101001111110 .
b101001111110 :
0&
b101011 $
b101011 (
#465000
1&
#470000
b101001111111 .
b101001111111 :
0&
b101100 $
b101100 (
#475000
1&
#480000
b101010000000 .
b101010000000 :
0&
b101101 $
b101101 (
#485000
1&
#490000
b101010000001 .
b101010000001 :
0&
b101110 $
b101110 (
#495000
1&
#500000
b101010000010 .
b101010000010 :
0&
b101111 $
b101111 (
#505000
1&
#510000
b101010000011 .
b101010000011 :
0&
b110000 $
b110000 (
#515000
1&
#520000
b101010000100 .
b101010000100 :
0&
b110001 $
b110001 (
#525000
1&
#530000
b101010000101 .
b101010000101 :
0&
b110010 $
b110010 (
#535000
1&
#540000
b101010000110 .
b101010000110 :
0&
b110011 $
b110011 (
#545000
1&
#550000
b101010000111 .
b101010000111 :
0&
b110100 $
b110100 (
#555000
1&
#560000
b101010001000 .
b101010001000 :
0&
b110101 $
b110101 (
#565000
1&
#570000
b101010001001 .
b101010001001 :
0&
b110110 $
b110110 (
#575000
1&
#580000
b101010001010 .
b101010001010 :
0&
b110111 $
b110111 (
#585000
1&
#590000
b101010001011 .
b101010001011 :
0&
b111000 $
b111000 (
#595000
1&
#600000
b101010001100 .
b101010001100 :
0&
b111001 $
b111001 (
#605000
1&
#610000
b101010001101 .
b101010001101 :
0&
b111010 $
b111010 (
#615000
1&
#620000
b101010001110 .
b101010001110 :
0&
b111011 $
b111011 (
#625000
1&
#630000
b101010001111 .
b101010001111 :
0&
b111100 $
b111100 (
#635000
1&
#640000
b101010010000 .
b101010010000 :
0&
b111101 $
b111101 (
#645000
1&
#650000
b101010010001 .
b101010010001 :
0&
b111110 $
b111110 (
#655000
1&
#660000
b101010010010 .
b101010010010 :
0&
b111111 $
b111111 (
#665000
1&
#670000
b101010010011 .
b101010010011 :
0&
b1000000 $
b1000000 (
#675000
1&
#680000
b101010010100 .
b101010010100 :
0&
b1000001 $
b1000001 (
#685000
1&
#690000
b101010010101 .
b101010010101 :
0&
b1000010 $
b1000010 (
#695000
1&
#700000
b101010010110 .
b101010010110 :
0&
b1000011 $
b1000011 (
#705000
1&
#710000
b101010010111 .
b101010010111 :
0&
b1000100 $
b1000100 (
#715000
1&
#720000
b101010011000 .
b101010011000 :
0&
b1000101 $
b1000101 (
#725000
1&
#730000
b101010011001 .
b101010011001 :
0&
b1000110 $
b1000110 (
#735000
1&
#740000
b101010011010 .
b101010011010 :
0&
b1000111 $
b1000111 (
#745000
1&
#750000
b101010011011 .
b101010011011 :
0&
b1001000 $
b1001000 (
#755000
1&
#760000
b101010011100 .
b101010011100 :
0&
b1001001 $
b1001001 (
#765000
1&
#770000
b101010011101 .
b101010011101 :
0&
b1001010 $
b1001010 (
#775000
1&
#780000
b101010011110 .
b101010011110 :
0&
b1001011 $
b1001011 (
#785000
1&
#790000
b101010011111 .
b101010011111 :
0&
b1001100 $
b1001100 (
#795000
1&
#800000
b101010100000 .
b101010100000 :
0&
b1001101 $
b1001101 (
#805000
1&
#810000
b101010100001 .
b101010100001 :
0&
b1001110 $
b1001110 (
#815000
1&
#820000
b101010100010 .
b101010100010 :
0&
b1001111 $
b1001111 (
#825000
1&
#830000
b101010100011 .
b101010100011 :
0&
b1010000 $
b1010000 (
#835000
1&
#840000
b101010100100 .
b101010100100 :
0&
b1010001 $
b1010001 (
#845000
1&
#850000
b101010100101 .
b101010100101 :
0&
b1010010 $
b1010010 (
#855000
1&
#860000
b101010100110 .
b101010100110 :
0&
b1010011 $
b1010011 (
#865000
1&
#870000
b101010100111 .
b101010100111 :
0&
b1010100 $
b1010100 (
#875000
1&
#880000
b101010101000 .
b101010101000 :
0&
b1010101 $
b1010101 (
#885000
1&
#890000
b101010101001 .
b101010101001 :
0&
b1010110 $
b1010110 (
#895000
1&
#900000
b101010101010 .
b101010101010 :
0&
b1010111 $
b1010111 (
#905000
1&
#910000
b101010101011 .
b101010101011 :
0&
b1011000 $
b1011000 (
#915000
1&
#920000
b101010101100 .
b101010101100 :
0&
b1011001 $
b1011001 (
#925000
1&
#930000
b101010101101 .
b101010101101 :
0&
b1011010 $
b1011010 (
#935000
1&
#940000
b101010101110 .
b101010101110 :
0&
b1011011 $
b1011011 (
#945000
1&
#950000
b101010101111 .
b101010101111 :
0&
b1011100 $
b1011100 (
#955000
1&
#960000
b101010110000 .
b101010110000 :
0&
b1011101 $
b1011101 (
#965000
1&
#970000
b101010110001 .
b101010110001 :
0&
b1011110 $
b1011110 (
#975000
1&
#980000
b101010110010 .
b101010110010 :
0&
b1011111 $
b1011111 (
#985000
1&
#990000
b101010110011 .
b101010110011 :
0&
b1100000 $
b1100000 (
#995000
1&
#1000000
b101010110100 .
b101010110100 :
0&
b1100001 $
b1100001 (
#1005000
1&
#1010000
b101010110101 .
b101010110101 :
0&
b1100010 $
b1100010 (
#1015000
1&
#1020000
b101010110110 .
b101010110110 :
0&
b1100011 $
b1100011 (
#1025000
1&
#1030000
b101010110111 .
b101010110111 :
0&
b1100100 $
b1100100 (
#1035000
1&
#1040000
b101010111000 .
b101010111000 :
0&
b1100101 $
b1100101 (
#1045000
1&
#1050000
b101010111001 .
b101010111001 :
0&
b1100110 $
b1100110 (
#1055000
1&
#1060000
b101010111010 .
b101010111010 :
0&
b1100111 $
b1100111 (
#1065000
1&
#1070000
b101010111011 .
b101010111011 :
0&
b1101000 $
b1101000 (
#1075000
1&
#1080000
b101010111100 .
b101010111100 :
0&
b1101001 $
b1101001 (
#1085000
1&
#1090000
b101010111101 .
b101010111101 :
0&
b1101010 $
b1101010 (
#1095000
1&
#1100000
b101010111110 .
b101010111110 :
0&
b1101011 $
b1101011 (
#1105000
1&
#1110000
b101010111111 .
b101010111111 :
0&
b1101100 $
b1101100 (
#1115000
1&
#1120000
b101011000000 .
b101011000000 :
0&
b1101101 $
b1101101 (
#1125000
1&
#1130000
b101011000001 .
b101011000001 :
0&
b1101110 $
b1101110 (
#1135000
1&
#1140000
b101011000010 .
b101011000010 :
0&
b1101111 $
b1101111 (
#1145000
1&
#1150000
b101011000011 .
b101011000011 :
0&
b1110000 $
b1110000 (
#1155000
1&
#1160000
b101011000100 .
b101011000100 :
0&
b1110001 $
b1110001 (
#1165000
1&
#1170000
b101011000101 .
b101011000101 :
0&
b1110010 $
b1110010 (
#1175000
1&
#1180000
b101011000110 .
b101011000110 :
0&
b1110011 $
b1110011 (
#1185000
1&
#1190000
b101011000111 .
b101011000111 :
0&
b1110100 $
b1110100 (
#1195000
1&
#1200000
b101011001000 .
b101011001000 :
0&
b1110101 $
b1110101 (
#1205000
1&
#1210000
b101011001001 .
b101011001001 :
0&
b1110110 $
b1110110 (
#1215000
1&
#1220000
b101011001010 .
b101011001010 :
0&
b1110111 $
b1110111 (
#1225000
1&
#1230000
b101011001011 .
b101011001011 :
0&
b1111000 $
b1111000 (
#1235000
1&
#1240000
b101011001100 .
b101011001100 :
0&
b1111001 $
b1111001 (
#1245000
1&
#1250000
b101011001101 .
b101011001101 :
0&
b1111010 $
b1111010 (
#1255000
1&
#1260000
b101011001110 .
b101011001110 :
0&
b1111011 $
b1111011 (
#1265000
1&
#1270000
b101011001111 .
b101011001111 :
0&
b1111100 $
b1111100 (
#1275000
1&
#1280000
b101011010000 .
b101011010000 :
0&
b1111101 $
b1111101 (
#1285000
1&
#1290000
b101011010001 .
b101011010001 :
0&
b1111110 $
b1111110 (
#1295000
1&
#1300000
b101011010010 .
b101011010010 :
0&
b1111111 $
b1111111 (
#1305000
1&
#1310000
b101011010011 .
b101011010011 :
0&
b10000000 $
b10000000 (
#1315000
1&
#1320000
b101011010100 .
b101011010100 :
0&
b10000001 $
b10000001 (
#1325000
1&
#1330000
b101011010101 .
b101011010101 :
0&
b10000010 $
b10000010 (
#1335000
1&
#1340000
b101011010110 .
b101011010110 :
0&
b10000011 $
b10000011 (
#1345000
1&
#1350000
b101011010111 .
b101011010111 :
0&
b10000100 $
b10000100 (
#1355000
1&
#1360000
b101011011000 .
b101011011000 :
0&
b10000101 $
b10000101 (
#1365000
1&
#1370000
b101011011001 .
b101011011001 :
0&
b10000110 $
b10000110 (
#1375000
1&
#1380000
b101011011010 .
b101011011010 :
0&
b10000111 $
b10000111 (
#1385000
1&
#1390000
b101011011011 .
b101011011011 :
0&
b10001000 $
b10001000 (
#1395000
1&
#1400000
b101011011100 .
b101011011100 :
0&
b10001001 $
b10001001 (
#1405000
1&
#1410000
b101011011101 .
b101011011101 :
0&
b10001010 $
b10001010 (
#1415000
1&
#1420000
b101011011110 .
b101011011110 :
0&
b10001011 $
b10001011 (
#1425000
1&
#1430000
b101011011111 .
b101011011111 :
0&
b10001100 $
b10001100 (
#1435000
1&
#1440000
b101011100000 .
b101011100000 :
0&
b10001101 $
b10001101 (
#1445000
1&
#1450000
b101011100001 .
b101011100001 :
0&
b10001110 $
b10001110 (
#1455000
1&
#1460000
b101011100010 .
b101011100010 :
0&
b10001111 $
b10001111 (
#1465000
1&
#1470000
b101011100011 .
b101011100011 :
0&
b10010000 $
b10010000 (
#1475000
1&
#1480000
b101011100100 .
b101011100100 :
0&
b10010001 $
b10010001 (
#1485000
1&
#1490000
b101011100101 .
b101011100101 :
0&
b10010010 $
b10010010 (
#1495000
1&
#1500000
b101011100110 .
b101011100110 :
0&
b10010011 $
b10010011 (
#1505000
1&
#1510000
b101011100111 .
b101011100111 :
0&
b10010100 $
b10010100 (
#1515000
1&
#1520000
b101011101000 .
b101011101000 :
0&
b10010101 $
b10010101 (
#1525000
1&
#1530000
b101011101001 .
b101011101001 :
0&
b10010110 $
b10010110 (
#1535000
1&
#1540000
b101011101010 .
b101011101010 :
0&
b10010111 $
b10010111 (
#1545000
1&
#1550000
b101011101011 .
b101011101011 :
0&
b10011000 $
b10011000 (
#1555000
1&
#1560000
b101011101100 .
b101011101100 :
0&
b10011001 $
b10011001 (
#1565000
1&
#1570000
b101011101101 .
b101011101101 :
0&
b10011010 $
b10011010 (
#1575000
1&
#1580000
b101011101110 .
b101011101110 :
0&
b10011011 $
b10011011 (
#1585000
1&
#1590000
b101011101111 .
b101011101111 :
0&
b10011100 $
b10011100 (
#1595000
1&
#1600000
b101011110000 .
b101011110000 :
0&
b10011101 $
b10011101 (
#1605000
1&
#1610000
b101011110001 .
b101011110001 :
0&
b10011110 $
b10011110 (
#1615000
1&
#1620000
b101011110010 .
b101011110010 :
0&
b10011111 $
b10011111 (
#1625000
1&
#1630000
b101011110011 .
b101011110011 :
0&
b10100000 $
b10100000 (
#1635000
1&
#1640000
b101011110100 .
b101011110100 :
0&
b10100001 $
b10100001 (
#1645000
1&
#1650000
b101011110101 .
b101011110101 :
0&
b10100010 $
b10100010 (
#1655000
1&
#1660000
b101011110110 .
b101011110110 :
0&
b10100011 $
b10100011 (
#1665000
1&
#1670000
b101011110111 .
b101011110111 :
0&
b10100100 $
b10100100 (
#1675000
1&
#1680000
b101011111000 .
b101011111000 :
0&
b10100101 $
b10100101 (
#1685000
1&
#1690000
b101011111001 .
b101011111001 :
0&
b10100110 $
b10100110 (
#1695000
1&
#1700000
b101011111010 .
b101011111010 :
0&
b10100111 $
b10100111 (
#1705000
1&
#1710000
b101011111011 .
b101011111011 :
0&
b10101000 $
b10101000 (
#1715000
1&
#1720000
b101011111100 .
b101011111100 :
0&
b10101001 $
b10101001 (
#1725000
1&
#1730000
b101011111101 .
b101011111101 :
0&
b10101010 $
b10101010 (
#1735000
1&
#1740000
b101011111110 .
b101011111110 :
0&
b10101011 $
b10101011 (
#1745000
1&
#1750000
b101011111111 .
b101011111111 :
0&
b10101100 $
b10101100 (
#1755000
1&
#1760000
b101100000000 .
b101100000000 :
0&
b10101101 $
b10101101 (
#1765000
1&
#1770000
b101100000001 .
b101100000001 :
0&
b10101110 $
b10101110 (
#1775000
1&
#1780000
b101100000010 .
b101100000010 :
0&
b10101111 $
b10101111 (
#1785000
1&
#1790000
b101100000011 .
b101100000011 :
0&
b10110000 $
b10110000 (
#1795000
1&
#1800000
b101100000100 .
b101100000100 :
0&
b10110001 $
b10110001 (
#1805000
1&
#1810000
b101100000101 .
b101100000101 :
0&
b10110010 $
b10110010 (
#1815000
1&
#1820000
b101100000110 .
b101100000110 :
0&
b10110011 $
b10110011 (
#1825000
1&
#1830000
b101100000111 .
b101100000111 :
0&
b10110100 $
b10110100 (
#1835000
1&
#1840000
b101100001000 .
b101100001000 :
0&
b10110101 $
b10110101 (
#1845000
1&
#1850000
b101100001001 .
b101100001001 :
0&
b10110110 $
b10110110 (
#1855000
1&
#1860000
b101100001010 .
b101100001010 :
0&
b10110111 $
b10110111 (
#1865000
1&
#1870000
b101100001011 .
b101100001011 :
0&
b10111000 $
b10111000 (
#1875000
1&
#1880000
b101100001100 .
b101100001100 :
0&
b10111001 $
b10111001 (
#1885000
1&
#1890000
b101100001101 .
b101100001101 :
0&
b10111010 $
b10111010 (
#1895000
1&
#1900000
b101100001110 .
b101100001110 :
0&
b10111011 $
b10111011 (
#1905000
1&
#1910000
b101100001111 .
b101100001111 :
0&
b10111100 $
b10111100 (
#1915000
1&
#1920000
b101100010000 .
b101100010000 :
0&
b10111101 $
b10111101 (
#1925000
1&
#1930000
b101100010001 .
b101100010001 :
0&
b10111110 $
b10111110 (
#1935000
1&
#1940000
b101100010010 .
b101100010010 :
0&
b10111111 $
b10111111 (
#1945000
1&
#1950000
b101100010011 .
b101100010011 :
0&
b11000000 $
b11000000 (
#1955000
1&
#1960000
b101100010100 .
b101100010100 :
0&
b11000001 $
b11000001 (
#1965000
1&
#1970000
b101100010101 .
b101100010101 :
0&
b11000010 $
b11000010 (
#1975000
1&
#1980000
b101100010110 .
b101100010110 :
0&
b11000011 $
b11000011 (
#1985000
1&
#1990000
b101100010111 .
b101100010111 :
0&
b11000100 $
b11000100 (
#1995000
1&
#2000000
b101100011000 .
b101100011000 :
0&
b11000101 $
b11000101 (
#2005000
1&
#2010000
b101100011001 .
b101100011001 :
0&
b11000110 $
b11000110 (
#2015000
1&
#2020000
b101100011010 .
b101100011010 :
0&
b11000111 $
b11000111 (
#2025000
1&
#2030000
b101100011011 .
b101100011011 :
0&
b11001000 $
b11001000 (
#2035000
1&
#2040000
b101100011100 .
b101100011100 :
0&
b11001001 $
b11001001 (
#2045000
1&
#2050000
b101100011101 .
b101100011101 :
0&
b11001010 $
b11001010 (
#2055000
1&
#2060000
b101100011110 .
b101100011110 :
0&
b11001011 $
b11001011 (
#2065000
1&
#2070000
b101100011111 .
b101100011111 :
0&
b11001100 $
b11001100 (
#2075000
1&
#2080000
b101100100000 .
b101100100000 :
0&
b11001101 $
b11001101 (
#2085000
1&
#2090000
b101100100001 .
b101100100001 :
0&
b11001110 $
b11001110 (
#2095000
1&
#2100000
b101100100010 .
b101100100010 :
0&
b11001111 $
b11001111 (
#2105000
1&
#2110000
b101100100011 .
b101100100011 :
0&
b11010000 $
b11010000 (
#2115000
1&
#2120000
b101100100100 .
b101100100100 :
0&
b11010001 $
b11010001 (
#2125000
1&
#2130000
b101100100101 .
b101100100101 :
0&
b11010010 $
b11010010 (
#2135000
1&
#2140000
b101100100110 .
b101100100110 :
0&
b11010011 $
b11010011 (
#2145000
1&
#2150000
b101100100111 .
b101100100111 :
0&
b11010100 $
b11010100 (
#2155000
1&
#2160000
b101100101000 .
b101100101000 :
0&
b11010101 $
b11010101 (
#2165000
1&
#2170000
b101100101001 .
b101100101001 :
0&
b11010110 $
b11010110 (
#2175000
1&
#2180000
b101100101010 .
b101100101010 :
0&
b11010111 $
b11010111 (
#2185000
1&
#2190000
b101100101011 .
b101100101011 :
0&
b11011000 $
b11011000 (
#2195000
1&
#2200000
b101100101100 .
b101100101100 :
0&
b11011001 $
b11011001 (
#2205000
1&
#2210000
b101100101101 .
b101100101101 :
0&
b11011010 $
b11011010 (
#2215000
1&
#2220000
b101100101110 .
b101100101110 :
0&
b11011011 $
b11011011 (
#2225000
1&
#2230000
b101100101111 .
b101100101111 :
0&
b11011100 $
b11011100 (
#2235000
1&
#2240000
b101100110000 .
b101100110000 :
0&
b11011101 $
b11011101 (
#2245000
1&
#2250000
b101100110001 .
b101100110001 :
0&
b11011110 $
b11011110 (
#2255000
1&
#2260000
b101100110010 .
b101100110010 :
0&
b11011111 $
b11011111 (
#2265000
1&
#2270000
b101100110011 .
b101100110011 :
0&
b11100000 $
b11100000 (
#2275000
1&
#2280000
b101100110100 .
b101100110100 :
0&
b11100001 $
b11100001 (
#2285000
1&
#2290000
b101100110101 .
b101100110101 :
0&
b11100010 $
b11100010 (
#2295000
1&
#2300000
b101100110110 .
b101100110110 :
0&
b11100011 $
b11100011 (
#2305000
1&
#2310000
b101100110111 .
b101100110111 :
0&
b11100100 $
b11100100 (
#2315000
1&
#2320000
b101100111000 .
b101100111000 :
0&
b11100101 $
b11100101 (
#2325000
1&
#2330000
b101100111001 .
b101100111001 :
0&
b11100110 $
b11100110 (
#2335000
1&
#2340000
b101100111010 .
b101100111010 :
0&
b11100111 $
b11100111 (
#2345000
1&
#2350000
b101100111011 .
b101100111011 :
0&
b11101000 $
b11101000 (
#2355000
1&
#2360000
b101100111100 .
b101100111100 :
0&
b11101001 $
b11101001 (
#2365000
1&
#2370000
b101100111101 .
b101100111101 :
0&
b11101010 $
b11101010 (
#2375000
1&
#2380000
b101100111110 .
b101100111110 :
0&
b11101011 $
b11101011 (
#2385000
1&
#2390000
b101100111111 .
b101100111111 :
0&
b11101100 $
b11101100 (
#2395000
1&
#2400000
b101101000000 .
b101101000000 :
0&
b11101101 $
b11101101 (
#2405000
1&
#2410000
b101101000001 .
b101101000001 :
0&
b11101110 $
b11101110 (
#2415000
1&
#2420000
b101101000010 .
b101101000010 :
0&
b11101111 $
b11101111 (
#2425000
1&
#2430000
b101101000011 .
b101101000011 :
0&
b11110000 $
b11110000 (
#2435000
1&
#2440000
b101101000100 .
b101101000100 :
0&
b11110001 $
b11110001 (
#2445000
1&
#2450000
b101101000101 .
b101101000101 :
0&
b11110010 $
b11110010 (
#2455000
1&
#2460000
b101101000110 .
b101101000110 :
0&
b11110011 $
b11110011 (
#2465000
1&
#2470000
b101101000111 .
b101101000111 :
0&
b11110100 $
b11110100 (
#2475000
1&
#2480000
b101101001000 .
b101101001000 :
0&
b11110101 $
b11110101 (
#2485000
1&
#2490000
b101101001001 .
b101101001001 :
0&
b11110110 $
b11110110 (
#2495000
1&
#2500000
b101101001010 .
b101101001010 :
0&
b11110111 $
b11110111 (
#2505000
1&
#2510000
b101101001011 .
b101101001011 :
0&
b11111000 $
b11111000 (
#2515000
1&
#2520000
b101101001100 .
b101101001100 :
0&
b11111001 $
b11111001 (
#2525000
1&
#2530000
b101101001101 .
b101101001101 :
0&
b11111010 $
b11111010 (
#2535000
1&
#2540000
b101101001110 .
b101101001110 :
0&
b11111011 $
b11111011 (
#2545000
1&
#2550000
b101101001111 .
b101101001111 :
0&
b11111100 $
b11111100 (
#2555000
1&
#2560000
b101101010000 .
b101101010000 :
0&
b11111101 $
b11111101 (
#2565000
1&
#2570000
b101101010001 .
b101101010001 :
0&
b11111110 $
b11111110 (
#2575000
1&
#2580000
b101101010010 .
b101101010010 :
0&
b11111111 $
b11111111 (
#2585000
1&
#2590000
16
b101101010011 .
b101101010011 :
0&
b100000000 $
b100000000 (
#2595000
1&
#2600000
b101101010100 .
b101101010100 :
0&
b100000001 $
b100000001 (
#2605000
1&
#2610000
b101101010101 .
b101101010101 :
0&
b100000010 $
b100000010 (
#2615000
1&
#2620000
b101101010110 .
b101101010110 :
0&
b100000011 $
b100000011 (
#2625000
1&
#2630000
b101101010111 .
b101101010111 :
0&
b100000100 $
b100000100 (
#2635000
1&
#2640000
b101101011000 .
b101101011000 :
0&
b100000101 $
b100000101 (
#2645000
1&
#2650000
b101101011001 .
b101101011001 :
0&
b100000110 $
b100000110 (
#2655000
1&
#2660000
b101101011010 .
b101101011010 :
0&
b100000111 $
b100000111 (
#2665000
1&
#2670000
b101101011011 .
b101101011011 :
0&
b100001000 $
b100001000 (
#2675000
1&
#2680000
b101101011100 .
b101101011100 :
0&
b100001001 $
b100001001 (
#2685000
1&
#2690000
b101101011101 .
b101101011101 :
0&
b100001010 $
b100001010 (
#2695000
1&
#2700000
b101101011110 .
b101101011110 :
0&
b100001011 $
b100001011 (
#2705000
1&
#2710000
b101101011111 .
b101101011111 :
0&
b100001100 $
b100001100 (
#2715000
1&
#2720000
b101101100000 .
b101101100000 :
0&
b100001101 $
b100001101 (
#2725000
1&
#2730000
b101101100001 .
b101101100001 :
0&
b100001110 $
b100001110 (
#2735000
1&
#2740000
b101101100010 .
b101101100010 :
0&
b100001111 $
b100001111 (
#2745000
1&
#2750000
b101101100011 .
b101101100011 :
0&
b100010000 $
b100010000 (
#2755000
1&
#2760000
06
b101101100100 .
b101101100100 :
0&
b100010001 $
b100010001 (
#2765000
1&
#2770000
b101101100101 .
b101101100101 :
0&
b100010010 $
b100010010 (
#2775000
1&
#2780000
b101101100110 .
b101101100110 :
0&
b100010011 $
b100010011 (
#2785000
1&
#2790000
b101101100111 .
b101101100111 :
0&
b100010100 $
b100010100 (
#2795000
1&
#2800000
b101101101000 .
b101101101000 :
0&
b100010101 $
b100010101 (
#2805000
1&
#2810000
b101101101001 .
b101101101001 :
0&
b100010110 $
b100010110 (
#2815000
1&
#2820000
b101101101010 .
b101101101010 :
0&
b100010111 $
b100010111 (
#2825000
1&
#2830000
b101101101011 .
b101101101011 :
0&
b100011000 $
b100011000 (
#2835000
1&
#2840000
b101101101100 .
b101101101100 :
0&
b100011001 $
b100011001 (
#2845000
1&
#2850000
b101101101101 .
b101101101101 :
0&
b100011010 $
b100011010 (
#2855000
1&
#2860000
b101101101110 .
b101101101110 :
0&
b100011011 $
b100011011 (
#2865000
1&
#2870000
b101101101111 .
b101101101111 :
0&
b100011100 $
b100011100 (
#2875000
1&
#2880000
b101101110000 .
b101101110000 :
0&
b100011101 $
b100011101 (
#2885000
1&
#2890000
b101101110001 .
b101101110001 :
0&
b100011110 $
b100011110 (
#2895000
1&
#2900000
b101101110010 .
b101101110010 :
0&
b100011111 $
b100011111 (
#2905000
1&
#2910000
b101101110011 .
b101101110011 :
0&
b100100000 $
b100100000 (
#2915000
1&
#2920000
b101101110100 .
b101101110100 :
0&
b100100001 $
b100100001 (
#2925000
1&
#2930000
b101101110101 .
b101101110101 :
0&
b100100010 $
b100100010 (
#2935000
1&
#2940000
b101101110110 .
b101101110110 :
0&
b100100011 $
b100100011 (
#2945000
1&
#2950000
b101101110111 .
b101101110111 :
0&
b100100100 $
b100100100 (
#2955000
1&
#2960000
b101101111000 .
b101101111000 :
0&
b100100101 $
b100100101 (
#2965000
1&
#2970000
b101101111001 .
b101101111001 :
0&
b100100110 $
b100100110 (
#2975000
1&
#2980000
b101101111010 .
b101101111010 :
0&
b100100111 $
b100100111 (
#2985000
1&
#2990000
b101101111011 .
b101101111011 :
0&
b100101000 $
b100101000 (
#2995000
1&
#3000000
b101101111100 .
b101101111100 :
0&
b100101001 $
b100101001 (
#3005000
1&
#3010000
b101101111101 .
b101101111101 :
0&
b100101010 $
b100101010 (
#3015000
1&
#3020000
b101101111110 .
b101101111110 :
0&
b100101011 $
b100101011 (
#3025000
1&
#3030000
b101101111111 .
b101101111111 :
0&
b100101100 $
b100101100 (
#3035000
1&
#3040000
b101110000000 .
b101110000000 :
0&
b100101101 $
b100101101 (
#3045000
1&
#3050000
b101110000001 .
b101110000001 :
0&
b100101110 $
b100101110 (
#3055000
1&
#3060000
b101110000010 .
b101110000010 :
0&
b100101111 $
b100101111 (
#3065000
1&
