ALLCODEHERE/FinalMannyCode/final/pdm_tb.vcd
$date
	Tue Oct 24 18:17:45 2023
$end
$version
	Icarus Verilog
$end
$timescale
	1ps
$end
$scope module pdm_tb $end
$var wire 1 ! pdm_out $end
$var reg 1 " clk_in $end
$var reg 8 # level_in [7:0] $end
$var reg 1 $ rst_in $end
$var reg 1 % tick_in $end
$scope module uut $end
$var wire 1 " clk_in $end
$var wire 8 & level_in [7:0] $end
$var wire 1 $ rst_in $end
$var wire 1 % tick_in $end
$var wire 1 ! pdm_out $end
$var reg 16 ' accumulator [15:0] $end
$var reg 1 ( pdm_out_old $end
$upscope $end
$scope begin $ivl_for_loop0 $end
$var integer 32 ) i [31:0] $end
$scope begin $ivl_for_loop1 $end
$var integer 32 * j [31:0] $end
$upscope $end
$upscope $end
$scope begin $ivl_for_loop2 $end
$var integer 32 + i [31:0] $end
$scope begin $ivl_for_loop3 $end
$var integer 32 , j [31:0] $end
$upscope $end
$upscope $end
$scope begin $ivl_for_loop4 $end
$var integer 32 - i [31:0] $end
$scope begin $ivl_for_loop5 $end
$var integer 32 . j [31:0] $end
$upscope $end
$upscope $end
$upscope $end
$enddefinitions $end
$comment Show the parameter values. $end
$dumpall
$end
#0
$dumpvars
b0 .
b0 -
b0 ,
b0 +
b0 *
b0 )
x(
b0 '
b0 &
0%
0$
b0 #
0"
0!
$end
#5000
0(
1"
#10000
0"
1$
#15000
1"
#20000
0"
1%
0$
#25000
1"
#30000
0"
0%
#35000
1"
#40000
0"
1%
b1 *
#45000
1"
#50000
0"
0%
#55000
1"
#60000
0"
1%
b10 *
#65000
1"
#70000
0"
0%
#75000
1"
#80000
0"
1%
b11 *
#85000
1"
#90000
0"
0%
#95000
1"
#100000
0"
1%
b100 *
#105000
1"
#110000
0"
0%
#115000
1"
#120000
0"
1%
b101 *
#125000
1"
#130000
0"
0%
#135000
1"
#140000
0"
1%
b110 *
#145000
1"
#150000
0"
0%
#155000
1"
#160000
0"
1%
b111 *
#165000
1"
#170000
0"
0%
#175000
1"
#180000
0"
1%
b1000 *
#185000
1"
#190000
0"
0%
#195000
1"
#200000
0"
1%
b1001 *
#205000
1"
#210000
0"
0%
#215000
1"
#220000
0"
1%
b1010 *
#225000
1"
#230000
0"
0%
#235000
1"
#240000
0"
1%
b1011 *
#245000
1"
#250000
0"
0%
#255000
1"
#260000
0"
1%
b1100 *
#265000
1"
#270000
0"
0%
#275000
1"
#280000
0"
1%
b1101 *
#285000
1"
#290000
0"
0%
#295000
1"
#300000
0"
1%
b1110 *
#305000
1"
#310000
0"
0%
#315000
1"
#320000
0"
1%
b1111 *
#325000
1"
#330000
0"
0%
#335000
1"
#340000
0"
1%
b10000 *
#345000
1"
#350000
0"
0%
#355000
1"
#360000
0"
1%
b10001 *
#365000
1"
#370000
0"
0%
#375000
1"
#380000
0"
1%
b10010 *
#385000
1"
#390000
0"
0%
#395000
1"
#400000
0"
1%
b10011 *
#405000
1"
#410000
0"
0%
#415000
1"
#420000
0"
1%
b10100 *
#425000
1"
#430000
0"
0%
#435000
1"
#440000
0"
1%
b10101 *
#445000
1"
#450000
0"
0%
#455000
1"
#460000
0"
1%
b10110 *
#465000
1"
#470000
0"
0%
#475000
1"
#480000
0"
1%
b10111 *
#485000
1"
#490000
0"
0%
#495000
1"
#500000
0"
1%
b11000 *
#505000
1"
#510000
0"
0%
#515000
1"
#520000
0"
1%
b11001 *
#525000
1"
#530000
0"
0%
#535000
1"
#540000
0"
1%
b11010 *
#545000
1"
#550000
0"
0%
#555000
1"
#560000
0"
1%
b11011 *
#565000
1"
#570000
0"
0%
#575000
1"
#580000
0"
1%
b11100 *
#585000
1"
#590000
0"
0%
#595000
1"
#600000
0"
1%
b11101 *
#605000
1"
#610000
0"
0%
#615000
1"
#620000
0"
1%
b1 #
b1 &
b1 )
b0 *
#625000
1!
b1 '
1"
#630000
0"
0%
#635000
0!
b1111111100000011 '
1(
1"
#640000
0"
1%
b1 *
#645000
b1111111100000100 '
0(
1"
#650000
0"
0%
#655000
b1111111100000101 '
1"
#660000
0"
1%
b10 *
#665000
b1111111100000110 '
1"
#670000
0"
0%
#675000
b1111111100000111 '
1"
#680000
0"
1%
b11 *
#685000
b1111111100001000 '
1"
#690000
0"
0%
#695000
b1111111100001001 '
1"
#700000
0"
1%
b100 *
#705000
b1111111100001010 '
1"
#710000
0"
0%
#715000
b1111111100001011 '
1"
#720000
0"
1%
b101 *
#725000
b1111111100001100 '
1"
#730000
0"
0%
#735000
b1111111100001101 '
1"
#740000
0"
1%
b110 *
#745000
b1111111100001110 '
1"
#750000
0"
0%
#755000
b1111111100001111 '
1"
#760000
0"
1%
b111 *
#765000
b1111111100010000 '
1"
#770000
0"
0%
#775000
b1111111100010001 '
1"
#780000
0"
1%
b1000 *
#785000
b1111111100010010 '
1"
#790000
0"
0%
#795000
b1111111100010011 '
1"
#800000
0"
1%
b1001 *
#805000
b1111111100010100 '
1"
#810000
0"
0%
#815000
b1111111100010101 '
1"
#820000
0"
1%
b1010 *
#825000
b1111111100010110 '
1"
#830000
0"
0%
#835000
b1111111100010111 '
1"
#840000
0"
1%
b1011 *
#845000
b1111111100011000 '
1"
#850000
0"
0%
#855000
b1111111100011001 '
1"
#860000
0"
1%
b1100 *
#865000
b1111111100011010 '
1"
#870000
0"
0%
#875000
b1111111100011011 '
1"
#880000
0"
1%
b1101 *
#885000
b1111111100011100 '
1"
#890000
0"
0%
#895000
b1111111100011101 '
1"
#900000
0"
1%
b1110 *
#905000
b1111111100011110 '
1"
#910000
0"
0%
#915000
b1111111100011111 '
1"
#920000
0"
1%
b1111 *
#925000
b1111111100100000 '
1"
#930000
0"
0%
#935000
b1111111100100001 '
1"
#940000
0"
1%
b10000 *
#945000
b1111111100100010 '
1"
#950000
0"
0%
#955000
b1111111100100011 '
1"
#960000
0"
1%
b10001 *
#965000
b1111111100100100 '
1"
#970000
0"
0%
#975000
b1111111100100101 '
1"
#980000
0"
1%
b10010 *
#985000
b1111111100100110 '
1"
#990000
0"
0%
#995000
b1111111100100111 '
1"
#1000000
0"
1%
b10011 *
#1005000
b1111111100101000 '
1"
#1010000
0"
0%
#1015000
b1111111100101001 '
1"
#1020000
0"
1%
b10100 *
#1025000
b1111111100101010 '
1"
#1030000
0"
0%
#1035000
b1111111100101011 '
1"
#1040000
0"
1%
b10101 *
#1045000
b1111111100101100 '
1"
#1050000
0"
0%
#1055000
b1111111100101101 '
1"
#1060000
0"
1%
b10110 *
#1065000
b1111111100101110 '
1"
#1070000
0"
0%
#1075000
b1111111100101111 '
1"
#1080000
0"
1%
b10111 *
#1085000
b1111111100110000 '
1"
#1090000
0"
0%
#1095000
b1111111100110001 '
1"
#1100000
0"
1%
b11000 *
#1105000
b1111111100110010 '
1"
#1110000
0"
0%
#1115000
b1111111100110011 '
1"
#1120000
0"
1%
b11001 *
#1125000
b1111111100110100 '
1"
#1130000
0"
0%
#1135000
b1111111100110101 '
1"
#1140000
0"
1%
b11010 *
#1145000
b1111111100110110 '
1"
#1150000
0"
0%
#1155000
b1111111100110111 '
1"
#1160000
0"
1%
b11011 *
#1165000
b1111111100111000 '
1"
#1170000
0"
0%
#1175000
b1111111100111001 '
1"
#1180000
0"
1%
b11100 *
#1185000
b1111111100111010 '
1"
#1190000
0"
0%
#1195000
b1111111100111011 '
1"
#1200000
0"
1%
b11101 *
#1205000
b1111111100111100 '
1"
#1210000
0"
0%
#1215000
b1111111100111101 '
1"
#1220000
0"
1%
b10 #
b10 &
b10 )
b0 *
#1225000
b1111111100111111 '
1"
#1230000
0"
0%
#1235000
b1111111101000001 '
1"
#1240000
0"
1%
b1 *
#1245000
b1111111101000011 '
1"
#1250000
0"
0%
#1255000
b1111111101000101 '
1"
#1260000
0"
1%
b10 *
#1265000
b1111111101000111 '
1"
#1270000
0"
0%
#1275000
b1111111101001001 '
1"
#1280000
0"
1%
b11 *
#1285000
b1111111101001011 '
1"
#1290000
0"
0%
#1295000
b1111111101001101 '
1"
#1300000
0"
1%
b100 *
#1305000
b1111111101001111 '
1"
#1310000
0"
0%
#1315000
b1111111101010001 '
1"
#1320000
0"
1%
b101 *
#1325000
b1111111101010011 '
1"
#1330000
0"
0%
#1335000
b1111111101010101 '
1"
#1340000
0"
1%
b110 *
#1345000
b1111111101010111 '
1"
#1350000
0"
0%
#1355000
b1111111101011001 '
1"
#1360000
0"
1%
b111 *
#1365000
b1111111101011011 '
1"
#1370000
0"
0%
#1375000
b1111111101011101 '
1"
#1380000
0"
1%
b1000 *
#1385000
b1111111101011111 '
1"
#1390000
0"
0%
#1395000
b1111111101100001 '
1"
#1400000
0"
1%
b1001 *
#1405000
b1111111101100011 '
1"
#1410000
0"
0%
#1415000
b1111111101100101 '
1"
#1420000
0"
1%
b1010 *
#1425000
b1111111101100111 '
1"
#1430000
0"
0%
#1435000
b1111111101101001 '
1"
#1440000
0"
1%
b1011 *
#1445000
b1111111101101011 '
1"
#1450000
0"
0%
#1455000
b1111111101101101 '
1"
#1460000
0"
1%
b1100 *
#1465000
b1111111101101111 '
1"
#1470000
0"
0%
#1475000
b1111111101110001 '
1"
#1480000
0"
1%
b1101 *
#1485000
b1111111101110011 '
1"
#1490000
0"
0%
#1495000
b1111111101110101 '
1"
#1500000
0"
1%
b1110 *
#1505000
b1111111101110111 '
1"
#1510000
0"
0%
#1515000
b1111111101111001 '
1"
#1520000
0"
1%
b1111 *
#1525000
b1111111101111011 '
1"
#1530000
0"
0%
#1535000
b1111111101111101 '
1"
#1540000
0"
1%
b10000 *
#1545000
b1111111101111111 '
1"
#1550000
0"
0%
#1555000
b1111111110000001 '
1"
#1560000
0"
1%
b10001 *
#1565000
b1111111110000011 '
1"
#1570000
0"
0%
#1575000
b1111111110000101 '
1"
#1580000
0"
1%
b10010 *
#1585000
b1111111110000111 '
1"
#1590000
0"
0%
#1595000
b1111111110001001 '
1"
#1600000
0"
1%
b10011 *
#1605000
b1111111110001011 '
1"
#1610000
0"
0%
#1615000
b1111111110001101 '
1"
#1620000
0"
1%
b10100 *
#1625000
b1111111110001111 '
1"
#1630000
0"
0%
#1635000
b1111111110010001 '
1"
#1640000
0"
1%
b10101 *
#1645000
b1111111110010011 '
1"
#1650000
0"
0%
#1655000
b1111111110010101 '
1"
#1660000
0"
1%
b10110 *
#1665000
b1111111110010111 '
1"
#1670000
0"
0%
#1675000
b1111111110011001 '
1"
#1680000
0"
1%
b10111 *
#1685000
b1111111110011011 '
1"
#1690000
0"
0%
#1695000
b1111111110011101 '
1"
#1700000
0"
1%
b11000 *
#1705000
b1111111110011111 '
1"
#1710000
0"
0%
#1715000
b1111111110100001 '
1"
#1720000
0"
1%
b11001 *
#1725000
b1111111110100011 '
1"
#1730000
0"
0%
#1735000
b1111111110100101 '
1"
#1740000
0"
1%
b11010 *
#1745000
b1111111110100111 '
1"
#1750000
0"
0%
#1755000
b1111111110101001 '
1"
#1760000
0"
1%
b11011 *
#1765000
b1111111110101011 '
1"
#1770000
0"
0%
#1775000
b1111111110101101 '
1"
#1780000
0"
1%
b11100 *
#1785000
b1111111110101111 '
1"
#1790000
0"
0%
#1795000
b1111111110110001 '
1"
#1800000
0"
1%
b11101 *
#1805000
b1111111110110011 '
1"
#1810000
0"
0%
#1815000
b1111111110110101 '
1"
#1820000
0"
1%
b11 #
b11 &
b11 )
b0 *
#1825000
b1111111110111000 '
1"
#1830000
0"
0%
#1835000
b1111111110111011 '
1"
#1840000
0"
1%
b1 *
#1845000
b1111111110111110 '
1"
#1850000
0"
0%
#1855000
b1111111111000001 '
1"
#1860000
0"
1%
b10 *
#1865000
b1111111111000100 '
1"
#1870000
0"
0%
#1875000
b1111111111000111 '
1"
#1880000
0"
1%
b11 *
#1885000
b1111111111001010 '
1"
#1890000
0"
0%
#1895000
b1111111111001101 '
1"
#1900000
0"
1%
b100 *
#1905000
b1111111111010000 '
1"
#1910000
0"
0%
#1915000
b1111111111010011 '
1"
#1920000
0"
1%
b101 *
#1925000
b1111111111010110 '
1"
#1930000
0"
0%
#1935000
b1111111111011001 '
1"
#1940000
0"
1%
b110 *
#1945000
b1111111111011100 '
1"
#1950000
0"
0%
#1955000
b1111111111011111 '
1"
#1960000
0"
1%
b111 *
#1965000
b1111111111100010 '
1"
#1970000
0"
0%
#1975000
b1111111111100101 '
1"
#1980000
0"
1%
b1000 *
#1985000
b1111111111101000 '
1"
#1990000
0"
0%
#1995000
b1111111111101011 '
1"
#2000000
0"
1%
b1001 *
#2005000
b1111111111101110 '
1"
#2010000
0"
0%
#2015000
b1111111111110001 '
1"
#2020000
0"
1%
b1010 *
#2025000
b1111111111110100 '
1"
#2030000
0"
0%
#2035000
b1111111111110111 '
1"
#2040000
0"
1%
b1011 *
#2045000
b1111111111111010 '
1"
#2050000
0"
0%
#2055000
b1111111111111101 '
1"
#2060000
0"
1%
b1100 *
#2065000
b0 '
1"
#2070000
0"
0%
#2075000
1!
b11 '
1"
#2080000
0"
1%
b1101 *
#2085000
0!
b1111111100000111 '
1(
1"
#2090000
0"
0%
#2095000
b1111111100001010 '
0(
1"
#2100000
0"
1%
b1110 *
#2105000
b1111111100001101 '
1"
#2110000
0"
0%
#2115000
b1111111100010000 '
1"
#2120000
0"
1%
b1111 *
#2125000
b1111111100010011 '
1"
#2130000
0"
0%
#2135000
b1111111100010110 '
1"
#2140000
0"
1%
b10000 *
#2145000
b1111111100011001 '
1"
#2150000
0"
0%
#2155000
b1111111100011100 '
1"
#2160000
0"
1%
b10001 *
#2165000
b1111111100011111 '
1"
#2170000
0"
0%
#2175000
b1111111100100010 '
1"
#2180000
0"
1%
b10010 *
#2185000
b1111111100100101 '
1"
#2190000
0"
0%
#2195000
b1111111100101000 '
1"
#2200000
0"
1%
b10011 *
#2205000
b1111111100101011 '
1"
#2210000
0"
0%
#2215000
b1111111100101110 '
1"
#2220000
0"
1%
b10100 *
#2225000
b1111111100110001 '
1"
#2230000
0"
0%
#2235000
b1111111100110100 '
1"
#2240000
0"
1%
b10101 *
#2245000
b1111111100110111 '
1"
#2250000
0"
0%
#2255000
b1111111100111010 '
1"
#2260000
0"
1%
b10110 *
#2265000
b1111111100111101 '
1"
#2270000
0"
0%
#2275000
b1111111101000000 '
1"
#2280000
0"
1%
b10111 *
#2285000
b1111111101000011 '
1"
#2290000
0"
0%
#2295000
b1111111101000110 '
1"
#2300000
0"
1%
b11000 *
#2305000
b1111111101001001 '
1"
#2310000
0"
0%
#2315000
b1111111101001100 '
1"
#2320000
0"
1%
b11001 *
#2325000
b1111111101001111 '
1"
#2330000
0"
0%
#2335000
b1111111101010010 '
1"
#2340000
0"
1%
b11010 *
#2345000
b1111111101010101 '
1"
#2350000
0"
0%
#2355000
b1111111101011000 '
1"
#2360000
0"
1%
b11011 *
#2365000
b1111111101011011 '
1"
#2370000
0"
0%
#2375000
b1111111101011110 '
1"
#2380000
0"
1%
b11100 *
#2385000
b1111111101100001 '
1"
#2390000
0"
0%
#2395000
b1111111101100100 '
1"
#2400000
0"
1%
b11101 *
#2405000
b1111111101100111 '
1"
#2410000
0"
0%
#2415000
b1111111101101010 '
1"
#2420000
0"
1%
b100 #
b100 &
b100 )
b0 *
#2425000
b1111111101101110 '
1"
#2430000
0"
0%
#2435000
b1111111101110010 '
1"
#2440000
0"
1%
b1 *
#2445000
b1111111101110110 '
1"
#2450000
0"
0%
#2455000
b1111111101111010 '
1"
#2460000
0"
1%
b10 *
#2465000
b1111111101111110 '
1"
#2470000
0"
0%
#2475000
b1111111110000010 '
1"
#2480000
0"
1%
b11 *
#2485000
b1111111110000110 '
1"
#2490000
0"
0%
#2495000
b1111111110001010 '
1"
#2500000
0"
1%
b100 *
#2505000
b1111111110001110 '
1"
#2510000
0"
0%
#2515000
b1111111110010010 '
1"
#2520000
0"
1%
b101 *
#2525000
b1111111110010110 '
1"
#2530000
0"
0%
#2535000
b1111111110011010 '
1"
#2540000
0"
1%
b110 *
#2545000
b1111111110011110 '
1"
#2550000
0"
0%
#2555000
b1111111110100010 '
1"
#2560000
0"
1%
b111 *
#2565000
b1111111110100110 '
1"
#2570000
0"
0%
#2575000
b1111111110101010 '
1"
#2580000
0"
1%
b1000 *
#2585000
b1111111110101110 '
1"
#2590000
0"
0%
#2595000
b1111111110110010 '
1"
#2600000
0"
1%
b1001 *
#2605000
b1111111110110110 '
1"
#2610000
0"
0%
#2615000
b1111111110111010 '
1"
#2620000
0"
1%
b1010 *
#2625000
b1111111110111110 '
1"
#2630000
0"
0%
#2635000
b1111111111000010 '
1"
#2640000
0"
1%
b1011 *
#2645000
b1111111111000110 '
1"
#2650000
0"
0%
#2655000
b1111111111001010 '
1"
#2660000
0"
1%
b1100 *
#2665000
b1111111111001110 '
1"
#2670000
0"
0%
#2675000
b1111111111010010 '
1"
#2680000
0"
1%
b1101 *
#2685000
b1111111111010110 '
1"
#2690000
0"
0%
#2695000
b1111111111011010 '
1"
#2700000
0"
1%
b1110 *
#2705000
b1111111111011110 '
1"
#2710000
0"
0%
#2715000
b1111111111100010 '
1"
#2720000
0"
1%
b1111 *
#2725000
b1111111111100110 '
1"
#2730000
0"
0%
#2735000
b1111111111101010 '
1"
#2740000
0"
1%
b10000 *
#2745000
b1111111111101110 '
1"
#2750000
0"
0%
#2755000
b1111111111110010 '
1"
#2760000
0"
1%
b10001 *
#2765000
b1111111111110110 '
1"
#2770000
0"
0%
#2775000
b1111111111111010 '
1"
#2780000
0"
1%
b10010 *
#2785000
b1111111111111110 '
1"
#2790000
0"
0%
#2795000
1!
b10 '
1"
#2800000
0"
1%
b10011 *
#2805000
0!
b1111111100000111 '
1(
1"
#2810000
0"
0%
#2815000
b1111111100001011 '
0(
1"
#2820000
0"
1%
b10100 *
#2825000
b1111111100001111 '
1"
#2830000
0"
0%
#2835000
b1111111100010011 '
1"
#2840000
0"
1%
b10101 *
#2845000
b1111111100010111 '
1"
#2850000
0"
0%
#2855000
b1111111100011011 '
1"
#2860000
0"
1%
b10110 *
#2865000
b1111111100011111 '
1"
#2870000
0"
0%
#2875000
b1111111100100011 '
1"
#2880000
0"
1%
b10111 *
#2885000
b1111111100100111 '
1"
#2890000
0"
0%
#2895000
b1111111100101011 '
1"
#2900000
0"
1%
b11000 *
#2905000
b1111111100101111 '
1"
#2910000
0"
0%
#2915000
b1111111100110011 '
1"
#2920000
0"
1%
b11001 *
#2925000
b1111111100110111 '
1"
#2930000
0"
0%
#2935000
b1111111100111011 '
1"
#2940000
0"
1%
b11010 *
#2945000
b1111111100111111 '
1"
#2950000
0"
0%
#2955000
b1111111101000011 '
1"
#2960000
0"
1%
b11011 *
#2965000
b1111111101000111 '
1"
#2970000
0"
0%
#2975000
b1111111101001011 '
1"
#2980000
0"
1%
b11100 *
#2985000
b1111111101001111 '
1"
#2990000
0"
0%
#2995000
b1111111101010011 '
1"
#3000000
0"
1%
b11101 *
#3005000
b1111111101010111 '
1"
#3010000
0"
0%
#3015000
b1111111101011011 '
1"
#3020000
0"
1%
b101 #
b101 &
b101 )
b0 *
#3025000
b1111111101100000 '
1"
#3030000
0"
0%
#3035000
b1111111101100101 '
1"
#3040000
0"
1%
b1 *
#3045000
b1111111101101010 '
1"
#3050000
0"
0%
#3055000
b1111111101101111 '
1"
#3060000
0"
1%
b10 *
#3065000
b1111111101110100 '
1"
#3070000
0"
0%
#3075000
b1111111101111001 '
1"
#3080000
0"
1%
b11 *
#3085000
b1111111101111110 '
1"
#3090000
0"
0%
#3095000
b1111111110000011 '
1"
#3100000
0"
1%
b100 *
#3105000
b1111111110001000 '
1"
#3110000
0"
0%
#3115000
b1111111110001101 '
1"
#3120000
0"
1%
b101 *
#3125000
b1111111110010010 '
1"
#3130000
0"
0%
#3135000
b1111111110010111 '
1"
#3140000
0"
1%
b110 *
#3145000
b1111111110011100 '
1"
#3150000
0"
0%
#3155000
b1111111110100001 '
1"
#3160000
0"
1%
b111 *
#3165000
b1111111110100110 '
1"
#3170000
0"
0%
#3175000
b1111111110101011 '
1"
#3180000
0"
1%
b1000 *
#3185000
b1111111110110000 '
1"
#3190000
0"
0%
#3195000
b1111111110110101 '
1"
#3200000
0"
1%
b1001 *
#3205000
b1111111110111010 '
1"
#3210000
0"
0%
#3215000
b1111111110111111 '
1"
#3220000
0"
1%
b1010 *
#3225000
b1111111111000100 '
1"
#3230000
0"
0%
#3235000
b1111111111001001 '
1"
#3240000
0"
1%
b1011 *
#3245000
b1111111111001110 '
1"
#3250000
0"
0%
#3255000
b1111111111010011 '
1"
#3260000
0"
1%
b1100 *
#3265000
b1111111111011000 '
1"
#3270000
0"
0%
#3275000
b1111111111011101 '
1"
#3280000
0"
1%
b1101 *
#3285000
b1111111111100010 '
1"
#3290000
0"
0%
#3295000
b1111111111100111 '
1"
#3300000
0"
1%
b1110 *
#3305000
b1111111111101100 '
1"
#3310000
0"
0%
#3315000
b1111111111110001 '
1"
#3320000
0"
1%
b1111 *
#3325000
b1111111111110110 '
1"
#3330000
0"
0%
#3335000
b1111111111111011 '
1"
#3340000
0"
1%
b10000 *
#3345000
b0 '
1"
#3350000
0"
0%
#3355000
1!
b101 '
1"
#3360000
0"
1%
b10001 *
#3365000
0!
b1111111100001011 '
1(
1"
#3370000
0"
0%
#3375000
b1111111100010000 '
0(
1"
#3380000
0"
1%
b10010 *
#3385000
b1111111100010101 '
1"
#3390000
0"
0%
#3395000
b1111111100011010 '
1"
#3400000
0"
1%
b10011 *
#3405000
b1111111100011111 '
1"
#3410000
0"
0%
#3415000
b1111111100100100 '
1"
#3420000
0"
1%
b10100 *
#3425000
b1111111100101001 '
1"
#3430000
0"
0%
#3435000
b1111111100101110 '
1"
#3440000
0"
1%
b10101 *
#3445000
b1111111100110011 '
1"
#3450000
0"
0%
#3455000
b1111111100111000 '
1"
#3460000
0"
1%
b10110 *
#3465000
b1111111100111101 '
1"
#3470000
0"
0%
#3475000
b1111111101000010 '
1"
#3480000
0"
1%
b10111 *
#3485000
b1111111101000111 '
1"
#3490000
0"
0%
#3495000
b1111111101001100 '
1"
#3500000
0"
1%
b11000 *
#3505000
b1111111101010001 '
1"
#3510000
0"
0%
#3515000
b1111111101010110 '
1"
#3520000
0"
1%
b11001 *
#3525000
b1111111101011011 '
1"
#3530000
0"
0%
#3535000
b1111111101100000 '
1"
#3540000
0"
1%
b11010 *
#3545000
b1111111101100101 '
1"
#3550000
0"
0%
#3555000
b1111111101101010 '
1"
#3560000
0"
1%
b11011 *
#3565000
b1111111101101111 '
1"
#3570000
0"
0%
#3575000
b1111111101110100 '
1"
#3580000
0"
1%
b11100 *
#3585000
b1111111101111001 '
1"
#3590000
0"
0%
#3595000
b1111111101111110 '
1"
#3600000
0"
1%
b11101 *
#3605000
b1111111110000011 '
1"
#3610000
0"
0%
#3615000
b1111111110001000 '
1"
#3620000
0"
1%
b110 #
b110 &
b110 )
b0 *
#3625000
b1111111110001110 '
1"
#3630000
0"
0%
#3635000
b1111111110010100 '
1"
#3640000
0"
1%
b1 *
#3645000
b1111111110011010 '
1"
#3650000
0"
0%
#3655000
b1111111110100000 '
1"
#3660000
0"
1%
b10 *
#3665000
b1111111110100110 '
1"
#3670000
0"
0%
#3675000
b1111111110101100 '
1"
#3680000
0"
1%
b11 *
#3685000
b1111111110110010 '
1"
#3690000
0"
0%
#3695000
b1111111110111000 '
1"
#3700000
0"
1%
b100 *
#3705000
b1111111110111110 '
1"
#3710000
0"
0%
#3715000
b1111111111000100 '
1"
#3720000
0"
1%
b101 *
#3725000
b1111111111001010 '
1"
#3730000
0"
0%
#3735000
b1111111111010000 '
1"
#3740000
0"
1%
b110 *
#3745000
b1111111111010110 '
1"
#3750000
0"
0%
#3755000
b1111111111011100 '
1"
#3760000
0"
1%
b111 *
#3765000
b1111111111100010 '
1"
#3770000
0"
0%
#3775000
b1111111111101000 '
1"
#3780000
0"
1%
b1000 *
#3785000
b1111111111101110 '
1"
#3790000
0"
0%
#3795000
b1111111111110100 '
1"
#3800000
0"
1%
b1001 *
#3805000
b1111111111111010 '
1"
#3810000
0"
0%
#3815000
b0 '
1"
#3820000
0"
1%
b1010 *
#3825000
1!
b110 '
1"
#3830000
0"
0%
#3835000
0!
b1111111100001101 '
1(
1"
#3840000
0"
1%
b1011 *
#3845000
b1111111100010011 '
0(
1"
#3850000
0"
0%
#3855000
b1111111100011001 '
1"
#3860000
0"
1%
b1100 *
#3865000
b1111111100011111 '
1"
#3870000
0"
0%
#3875000
b1111111100100101 '
1"
#3880000
0"
1%
b1101 *
#3885000
b1111111100101011 '
1"
#3890000
0"
0%
#3895000
b1111111100110001 '
1"
#3900000
0"
1%
b1110 *
#3905000
b1111111100110111 '
1"
#3910000
0"
0%
#3915000
b1111111100111101 '
1"
#3920000
0"
1%
b1111 *
#3925000
b1111111101000011 '
1"
#3930000
0"
0%
#3935000
b1111111101001001 '
1"
#3940000
0"
1%
b10000 *
#3945000
b1111111101001111 '
1"
#3950000
0"
0%
#3955000
b1111111101010101 '
1"
#3960000
0"
1%
b10001 *
#3965000
b1111111101011011 '
1"
#3970000
0"
0%
#3975000
b1111111101100001 '
1"
#3980000
0"
1%
b10010 *
#3985000
b1111111101100111 '
1"
#3990000
0"
0%
#3995000
b1111111101101101 '
1"
#4000000
0"
1%
b10011 *
#4005000
b1111111101110011 '
1"
#4010000
0"
0%
#4015000
b1111111101111001 '
1"
#4020000
0"
1%
b10100 *
#4025000
b1111111101111111 '
1"
#4030000
0"
0%
#4035000
b1111111110000101 '
1"
#4040000
0"
1%
b10101 *
#4045000
b1111111110001011 '
1"
#4050000
0"
0%
#4055000
b1111111110010001 '
1"
#4060000
0"
1%
b10110 *
#4065000
b1111111110010111 '
1"
#4070000
0"
0%
#4075000
b1111111110011101 '
1"
#4080000
0"
1%
b10111 *
#4085000
b1111111110100011 '
1"
#4090000
0"
0%
#4095000
b1111111110101001 '
1"
#4100000
0"
1%
b11000 *
#4105000
b1111111110101111 '
1"
#4110000
0"
0%
#4115000
b1111111110110101 '
1"
#4120000
0"
1%
b11001 *
#4125000
b1111111110111011 '
1"
#4130000
0"
0%
#4135000
b1111111111000001 '
1"
#4140000
0"
1%
b11010 *
#4145000
b1111111111000111 '
1"
#4150000
0"
0%
#4155000
b1111111111001101 '
1"
#4160000
0"
1%
b11011 *
#4165000
b1111111111010011 '
1"
#4170000
0"
0%
#4175000
b1111111111011001 '
1"
#4180000
0"
1%
b11100 *
#4185000
b1111111111011111 '
1"
#4190000
0"
0%
#4195000
b1111111111100101 '
1"
#4200000
0"
1%
b11101 *
#4205000
b1111111111101011 '
1"
#4210000
0"
0%
#4215000
b1111111111110001 '
1"
#4220000
0"
1%
b111 #
b111 &
b111 )
b0 *
#4225000
b1111111111111000 '
1"
#4230000
0"
0%
#4235000
b1111111111111111 '
1"
#4240000
0"
1%
b1 *
#4245000
1!
b110 '
1"
#4250000
0"
0%
#4255000
0!
b1111111100001110 '
1(
1"
#4260000
0"
1%
b10 *
#4265000
b1111111100010101 '
0(
1"
#4270000
0"
0%
#4275000
b1111111100011100 '
1"
#4280000
0"
1%
b11 *
#4285000
b1111111100100011 '
1"
#4290000
0"
0%
#4295000
b1111111100101010 '
1"
#4300000
0"
1%
b100 *
#4305000
b1111111100110001 '
1"
#4310000
0"
0%
#4315000
b1111111100111000 '
1"
#4320000
0"
1%
b101 *
#4325000
b1111111100111111 '
1"
#4330000
0"
0%
#4335000
b1111111101000110 '
1"
#4340000
0"
1%
b110 *
#4345000
b1111111101001101 '
1"
#4350000
0"
0%
#4355000
b1111111101010100 '
1"
#4360000
0"
1%
b111 *
#4365000
b1111111101011011 '
1"
#4370000
0"
0%
#4375000
b1111111101100010 '
1"
#4380000
0"
1%
b1000 *
#4385000
b1111111101101001 '
1"
#4390000
0"
0%
#4395000
b1111111101110000 '
1"
#4400000
0"
1%
b1001 *
#4405000
b1111111101110111 '
1"
#4410000
0"
0%
#4415000
b1111111101111110 '
1"
#4420000
0"
1%
b1010 *
#4425000
b1111111110000101 '
1"
#4430000
0"
0%
#4435000
b1111111110001100 '
1"
#4440000
0"
1%
b1011 *
#4445000
b1111111110010011 '
1"
#4450000
0"
0%
#4455000
b1111111110011010 '
1"
#4460000
0"
1%
b1100 *
#4465000
b1111111110100001 '
1"
#4470000
0"
0%
#4475000
b1111111110101000 '
1"
#4480000
0"
1%
b1101 *
#4485000
b1111111110101111 '
1"
#4490000
0"
0%
#4495000
b1111111110110110 '
1"
#4500000
0"
1%
b1110 *
#4505000
b1111111110111101 '
1"
#4510000
0"
0%
#4515000
b1111111111000100 '
1"
#4520000
0"
1%
b1111 *
#4525000
b1111111111001011 '
1"
#4530000
0"
0%
#4535000
b1111111111010010 '
1"
#4540000
0"
1%
b10000 *
#4545000
b1111111111011001 '
1"
#4550000
0"
0%
#4555000
b1111111111100000 '
1"
#4560000
0"
1%
b10001 *
#4565000
b1111111111100111 '
1"
#4570000
0"
0%
#4575000
b1111111111101110 '
1"
#4580000
0"
1%
b10010 *
#4585000
b1111111111110101 '
1"
#4590000
0"
0%
#4595000
b1111111111111100 '
1"
#4600000
0"
1%
b10011 *
#4605000
1!
b11 '
1"
#4610000
0"
0%
#4615000
0!
b1111111100001011 '
1(
1"
#4620000
0"
1%
b10100 *
#4625000
b1111111100010010 '
0(
1"
#4630000
0"
0%
#4635000
b1111111100011001 '
1"
#4640000
0"
1%
b10101 *
#4645000
b1111111100100000 '
1"
#4650000
0"
0%
#4655000
b1111111100100111 '
1"
#4660000
0"
1%
b10110 *
#4665000
b1111111100101110 '
1"
#4670000
0"
0%
#4675000
b1111111100110101 '
1"
#4680000
0"
1%
b10111 *
#4685000
b1111111100111100 '
1"
#4690000
0"
0%
#4695000
b1111111101000011 '
1"
#4700000
0"
1%
b11000 *
