UART_PROTOCOL /spi.vcd
$date
	Wed Sep 20 13:41:57 2023
$end
$version
	Icarus Verilog
$end
$timescale
	1ps
$end
$scope module spi_rx_tb $end
$var wire 1 ! sel_out $end
$var wire 1 " s_sel_out $end
$var wire 1 # s_data_out $end
$var wire 1 $ s_data_clk_out $end
$var wire 16 % rx_out [15:0] $end
$var wire 1 & new_data_out $end
$var wire 1 ' data_out $end
$var wire 1 ( data_clk_out $end
$var parameter 32 ) DATA_WIDTH $end
$var reg 1 * clk_in $end
$var reg 16 + data_in [15:0] $end
$var reg 1 , rst_in $end
$var reg 1 - trigger_in $end
$scope module s1 $end
$var wire 1 * clk_in $end
$var wire 1 , rst_in $end
$var wire 1 ' us_in $end
$var wire 1 # s_out $end
$var parameter 32 . SYNC_DEPTH $end
$var reg 2 / sync [1:0] $end
$scope begin $ivl_for_loop2 $end
$var integer 32 0 i [31:0] $end
$upscope $end
$upscope $end
$scope module s2 $end
$var wire 1 * clk_in $end
$var wire 1 , rst_in $end
$var wire 1 ( us_in $end
$var wire 1 $ s_out $end
$var parameter 32 1 SYNC_DEPTH $end
$var reg 2 2 sync [1:0] $end
$scope begin $ivl_for_loop2 $end
$var integer 32 3 i [31:0] $end
$upscope $end
$upscope $end
$scope module s3 $end
$var wire 1 * clk_in $end
$var wire 1 , rst_in $end
$var wire 1 ! us_in $end
$var wire 1 " s_out $end
$var parameter 32 4 SYNC_DEPTH $end
$var reg 2 5 sync [1:0] $end
$scope begin $ivl_for_loop2 $end
$var integer 32 6 i [31:0] $end
$upscope $end
$upscope $end
$scope module uut $end
$var wire 1 * clk_in $end
$var wire 16 7 data_in [15:0] $end
$var wire 1 , rst_in $end
$var wire 1 - trigger_in $end
$var parameter 32 8 DATA_PERIOD $end
$var parameter 32 9 DATA_WIDTH $end
$var parameter 32 : bit_counter_size $end
$var parameter 32 ; clock_counter_size $end
$var reg 5 < bit_counter [4:0] $end
$var reg 6 = clock_counter [5:0] $end
$var reg 1 ( data_clk_out $end
$var reg 16 > data_in_temp [15:0] $end
$var reg 1 ' data_out $end
$var reg 1 ! sel_out $end
$upscope $end
$scope module uut2 $end
$var wire 1 * clk_in $end
$var wire 1 $ data_clk_in $end
$var wire 1 # data_in $end
$var wire 1 , rst_in $end
$var wire 1 " sel_in $end
$var parameter 32 ? DATA_WIDTH $end
$var reg 5 @ bit_counter1 [4:0] $end
$var reg 1 A clock_on $end
$var reg 16 B data_out [15:0] $end
$var reg 1 C finish $end
$var reg 1 & new_data_out $end
$var reg 1 D on $end
$upscope $end
$scope begin $ivl_for_loop0 $end
$var integer 32 E i [31:0] $end
$upscope $end
$scope begin $ivl_for_loop1 $end
$var integer 32 F i [31:0] $end
$upscope $end
$upscope $end
$enddefinitions $end
$comment Show the parameter values. $end
$dumpall
b10000 ?
b101 ;
b100 :
b10000 9
b10100 8
b10 4
b10 1
b10 .
b10000 )
$end
#0
$dumpvars
b0 F
b0 E
xD
xC
bx B
xA
bx @
bx >
bx =
bx <
b1011111011100001 7
b0 6
bx 5
b0 3
bx 2
b0 0
bx /
0-
0,
b1011111011100001 +
0*
x(
x'
x&
bx %
x$
x#
x"
x!
$end
#5000
b10 6
b10 3
b10 0
1*
#10000
0*
1,
#15000
0A
b0 @
0C
1!
b0 =
b0 <
0(
1*
#20000
0*
0,
#25000
b1x 5
b0x 2
b1 =
b10 0
b10 3
b10 6
1*
#30000
0*
#35000
0$
1"
b0 2
b11 5
b10 =
b10 0
b10 3
b10 6
1*
#40000
0*
#45000
b11 =
1D
b10 0
b10 3
b10 6
1*
#50000
0*
#55000
b100 =
b10 0
b10 3
b10 6
1*
#60000
0*
#65000
b101 =
b10 0
b10 3
b10 6
1*
#70000
0*
#75000
b110 =
b10 0
b10 3
b10 6
1*
#80000
0*
#85000
b111 =
b10 0
b10 3
b10 6
1*
#90000
0*
#95000
b1000 =
b10 0
b10 3
b10 6
1*
#100000
0*
#105000
b1001 =
b10 0
b10 3
b10 6
1*
#110000
0*
#115000
1(
b0 =
b10 0
b10 3
b10 6
1*
#120000
0*
#125000
b1 =
b10 2
b10 0
b10 3
b10 6
1*
#130000
0*
#135000
1$
b11 2
b10 =
b10 0
b10 3
b10 6
1*
#140000
0*
#145000
b11 =
b10 0
b10 3
b10 6
1*
#150000
0*
#155000
b100 =
b10 0
b10 3
b10 6
1*
#160000
0*
#165000
b101 =
b10 0
b10 3
b10 6
1*
#170000
0*
#175000
b110 =
b10 0
b10 3
b10 6
1*
#180000
0*
#185000
b111 =
b10 0
b10 3
b10 6
1*
#190000
0*
#195000
b1000 =
b10 0
b10 3
b10 6
1*
#200000
0*
#205000
b1001 =
b10 0
b10 3
b10 6
1*
#210000
0*
#215000
0(
b0 =
b1 <
b10 0
b10 3
b10 6
1*
#220000
0*
#225000
b1 =
b1 2
b10 0
b10 3
b10 6
1*
#230000
0*
#235000
0$
b0 2
b10 =
b10 0
b10 3
b10 6
1*
#240000
0*
#245000
b11 =
b10 0
b10 3
b10 6
1*
#250000
0*
#255000
b100 =
b10 0
b10 3
b10 6
1*
#260000
0*
#265000
b101 =
b10 0
b10 3
b10 6
1*
#270000
0*
#275000
b110 =
b10 0
b10 3
b10 6
1*
#280000
0*
#285000
b111 =
b10 0
b10 3
b10 6
1*
#290000
0*
#295000
b1000 =
b10 0
b10 3
b10 6
1*
#300000
0*
#305000
b1001 =
b10 0
b10 3
b10 6
1*
#310000
0*
#315000
1(
b0 =
b10 0
b10 3
b10 6
1*
#320000
0*
#325000
b1 =
b10 2
b10 0
b10 3
b10 6
1*
#330000
0*
#335000
1$
b11 2
b10 =
b10 0
b10 3
b10 6
1*
#340000
0*
#345000
b11 =
b10 0
b10 3
b10 6
1*
#350000
0*
#355000
b100 =
b10 0
b10 3
b10 6
1*
#360000
0*
#365000
b101 =
b10 0
b10 3
b10 6
1*
#370000
0*
#375000
b110 =
b10 0
b10 3
b10 6
1*
#380000
0*
#385000
b111 =
b10 0
b10 3
b10 6
1*
#390000
0*
#395000
b1000 =
b10 0
b10 3
b10 6
1*
#400000
0*
#405000
b1001 =
b10 0
b10 3
b10 6
1*
#410000
0*
#415000
0(
b0 =
b10 <
b10 0
b10 3
b10 6
1*
#420000
0*
#425000
b1 =
b1 2
b10 0
b10 3
b10 6
1*
#430000
0*
#435000
0$
b0 2
b10 =
b10 0
b10 3
b10 6
1*
#440000
0*
#445000
b11 =
b10 0
b10 3
b10 6
1*
#450000
0*
#455000
b100 =
b10 0
b10 3
b10 6
1*
#460000
0*
#465000
b101 =
b10 0
b10 3
b10 6
1*
#470000
0*
#475000
b110 =
b10 0
b10 3
b10 6
1*
#480000
0*
#485000
b111 =
b10 0
b10 3
b10 6
1*
#490000
0*
#495000
b1000 =
b10 0
b10 3
b10 6
1*
#500000
0*
#505000
b1001 =
b10 0
b10 3
b10 6
1*
#510000
0*
#515000
1(
b0 =
b10 0
b10 3
b10 6
1*
#520000
0*
1-
#525000
b1011111011100001 >
b0 <
0(
0!
b10 2
b10 0
b10 3
b10 6
1*
#530000
0*
0-
#535000
1$
b1 =
b1 5
b1 2
b10 0
b10 3
b10 6
1'
1*
#540000
0*
b1 E
#545000
0$
0"
b0 2
b0 5
b10 =
b1x /
b10 0
b10 3
b10 6
1*
#550000
0*
b10 E
#555000
1#
b11 /
0D
b11 =
b10 0
b10 3
b10 6
1*
#560000
0*
b11 E
#565000
b100 =
b10 0
b10 3
b10 6
1*
#570000
0*
b100 E
#575000
b101 =
b10 0
b10 3
b10 6
1*
#580000
0*
b101 E
#585000
b110 =
b10 0
b10 3
b10 6
1*
#590000
0*
b110 E
#595000
b111 =
b10 0
b10 3
b10 6
1*
#600000
0*
b111 E
#605000
b1000 =
b10 0
b10 3
b10 6
1*
#610000
0*
b1000 E
#615000
b1001 =
b10 0
b10 3
b10 6
1*
#620000
0*
b1001 E
#625000
1(
b0 =
b10 0
b10 3
b10 6
1*
#630000
0*
b1010 E
#635000
b1 =
b10 2
b10 0
b10 3
b10 6
1*
#640000
0*
b1011 E
#645000
1$
b11 2
b10 =
b10 0
b10 3
b10 6
1*
#650000
0*
b1100 E
#655000
b1 @
b1xxxxxxxxxxxxxxx %
b1xxxxxxxxxxxxxxx B
1A
b11 =
b10 0
b10 3
b10 6
1*
#660000
0*
b1101 E
#665000
b100 =
b10 0
b10 3
b10 6
1*
#670000
0*
b1110 E
#675000
b101 =
b10 0
b10 3
b10 6
1*
#680000
0*
b1111 E
#685000
b110 =
b10 0
b10 3
b10 6
1*
#690000
0*
b10000 E
#695000
b111 =
b10 0
b10 3
b10 6
1*
#700000
0*
b10001 E
#705000
b1000 =
b10 0
b10 3
b10 6
1*
#710000
0*
b10010 E
#715000
b1001 =
b10 0
b10 3
b10 6
1*
#720000
0*
b10011 E
#725000
0(
b0 =
b1 <
b10 0
b10 3
b10 6
1*
#730000
0*
b10100 E
#735000
b1 =
b1 2
b10 0
b10 3
b10 6
0'
1*
#740000
0*
b10101 E
#745000
0$
b0 2
b10 =
b1 /
b10 0
b10 3
b10 6
1*
#750000
0*
b10110 E
#755000
0#
b0 /
0A
b11 =
b10 0
b10 3
b10 6
1*
#760000
0*
b10111 E
#765000
b100 =
b10 0
b10 3
b10 6
1*
#770000
0*
b11000 E
#775000
b101 =
b10 0
b10 3
b10 6
1*
#780000
0*
b11001 E
#785000
b110 =
b10 0
b10 3
b10 6
1*
#790000
0*
b11010 E
#795000
b111 =
b10 0
b10 3
b10 6
1*
#800000
0*
b11011 E
#805000
b1000 =
b10 0
b10 3
b10 6
1*
#810000
0*
b11100 E
#815000
b1001 =
b10 0
b10 3
b10 6
1*
#820000
0*
b11101 E
#825000
1(
b0 =
b10 0
b10 3
b10 6
1*
#830000
0*
b11110 E
#835000
b1 =
b10 2
b10 0
b10 3
b10 6
1*
#840000
0*
b11111 E
#845000
1$
b11 2
b10 =
b10 0
b10 3
b10 6
1*
#850000
0*
b100000 E
#855000
b10 @
b10xxxxxxxxxxxxxx %
b10xxxxxxxxxxxxxx B
1A
b11 =
b10 0
b10 3
b10 6
1*
#860000
0*
b100001 E
#865000
b100 =
b10 0
b10 3
b10 6
1*
#870000
0*
b100010 E
#875000
b101 =
b10 0
b10 3
b10 6
1*
#880000
0*
b100011 E
#885000
b110 =
b10 0
b10 3
b10 6
1*
#890000
0*
b100100 E
#895000
b111 =
b10 0
b10 3
b10 6
1*
#900000
0*
b100101 E
#905000
b1000 =
b10 0
b10 3
b10 6
1*
#910000
0*
b100110 E
#915000
b1001 =
b10 0
b10 3
b10 6
1*
#920000
0*
b100111 E
#925000
0(
b0 =
b10 <
b10 0
b10 3
b10 6
1*
#930000
0*
b101000 E
#935000
b1 =
b1 2
b10 0
b10 3
b10 6
1'
1*
#940000
0*
b101001 E
#945000
0$
b0 2
b10 =
b10 /
b10 0
b10 3
b10 6
1*
#950000
0*
b101010 E
#955000
1#
b11 /
0A
b11 =
b10 0
b10 3
b10 6
1*
#960000
0*
b101011 E
#965000
b100 =
b10 0
b10 3
b10 6
1*
#970000
0*
b101100 E
#975000
b101 =
b10 0
b10 3
b10 6
1*
#980000
0*
b101101 E
#985000
b110 =
b10 0
b10 3
b10 6
1*
#990000
0*
b101110 E
#995000
b111 =
b10 0
b10 3
b10 6
1*
#1000000
0*
b101111 E
#1005000
b1000 =
b10 0
b10 3
b10 6
1*
#1010000
0*
b110000 E
#1015000
b1001 =
b10 0
b10 3
b10 6
1*
#1020000
0*
b110001 E
#1025000
1(
b0 =
b10 0
b10 3
b10 6
1*
#1030000
0*
b110010 E
#1035000
b1 =
b10 2
b10 0
b10 3
b10 6
1*
#1040000
0*
b110011 E
#1045000
1$
b11 2
b10 =
b10 0
b10 3
b10 6
1*
#1050000
0*
b110100 E
#1055000
b11 @
b101xxxxxxxxxxxxx %
b101xxxxxxxxxxxxx B
1A
b11 =
b10 0
b10 3
b10 6
1*
#1060000
0*
b110101 E
#1065000
b100 =
b10 0
b10 3
b10 6
1*
#1070000
0*
b110110 E
#1075000
b101 =
b10 0
b10 3
b10 6
1*
#1080000
0*
b110111 E
#1085000
b110 =
b10 0
b10 3
b10 6
1*
#1090000
0*
b111000 E
#1095000
b111 =
b10 0
b10 3
b10 6
1*
#1100000
0*
b111001 E
#1105000
b1000 =
b10 0
b10 3
b10 6
1*
#1110000
0*
b111010 E
#1115000
b1001 =
b10 0
b10 3
b10 6
1*
#1120000
0*
b111011 E
#1125000
0(
b0 =
b11 <
b10 0
b10 3
b10 6
1*
#1130000
0*
b111100 E
#1135000
b1 =
b1 2
b10 0
b10 3
b10 6
1*
#1140000
0*
b111101 E
#1145000
0$
b0 2
b10 =
b10 0
b10 3
b10 6
1*
#1150000
0*
b111110 E
#1155000
0A
b11 =
b10 0
b10 3
b10 6
1*
#1160000
0*
b111111 E
#1165000
b100 =
b10 0
b10 3
b10 6
1*
#1170000
0*
b1000000 E
#1175000
b101 =
b10 0
b10 3
b10 6
1*
#1180000
0*
b1000001 E
#1185000
b110 =
b10 0
b10 3
b10 6
1*
#1190000
0*
b1000010 E
#1195000
b111 =
b10 0
b10 3
b10 6
1*
#1200000
0*
b1000011 E
#1205000
b1000 =
b10 0
b10 3
b10 6
1*
#1210000
0*
b1000100 E
#1215000
b1001 =
b10 0
b10 3
b10 6
1*
#1220000
0*
b1000101 E
#1225000
1(
b0 =
b10 0
b10 3
b10 6
1*
#1230000
0*
b1000110 E
#1235000
b1 =
b10 2
b10 0
b10 3
b10 6
1*
#1240000
0*
b1000111 E
#1245000
1$
b11 2
b10 =
b10 0
b10 3
b10 6
1*
#1250000
0*
b1001000 E
#1255000
b100 @
b1011xxxxxxxxxxxx %
b1011xxxxxxxxxxxx B
1A
b11 =
b10 0
b10 3
b10 6
1*
#1260000
0*
b1001001 E
#1265000
b100 =
b10 0
b10 3
b10 6
1*
#1270000
0*
b1001010 E
#1275000
b101 =
b10 0
b10 3
b10 6
1*
#1280000
0*
b1001011 E
#1285000
b110 =
b10 0
b10 3
b10 6
1*
#1290000
0*
b1001100 E
#1295000
b111 =
b10 0
b10 3
b10 6
1*
#1300000
0*
b1001101 E
#1305000
b1000 =
b10 0
b10 3
b10 6
1*
#1310000
0*
b1001110 E
#1315000
b1001 =
b10 0
b10 3
b10 6
1*
#1320000
0*
b1001111 E
#1325000
0(
b0 =
b100 <
b10 0
b10 3
b10 6
1*
#1330000
0*
b1010000 E
#1335000
b1 =
b1 2
b10 0
b10 3
b10 6
1*
#1340000
0*
b1010001 E
#1345000
0$
b0 2
b10 =
b10 0
b10 3
b10 6
1*
#1350000
0*
b1010010 E
#1355000
0A
b11 =
b10 0
b10 3
b10 6
1*
#1360000
0*
b1010011 E
#1365000
b100 =
b10 0
b10 3
b10 6
1*
#1370000
0*
b1010100 E
#1375000
b101 =
b10 0
b10 3
b10 6
1*
#1380000
0*
b1010101 E
#1385000
b110 =
b10 0
b10 3
b10 6
1*
#1390000
0*
b1010110 E
#1395000
b111 =
b10 0
b10 3
b10 6
1*
#1400000
0*
b1010111 E
#1405000
b1000 =
b10 0
b10 3
b10 6
1*
#1410000
0*
b1011000 E
#1415000
b1001 =
b10 0
b10 3
b10 6
1*
#1420000
0*
b1011001 E
#1425000
1(
b0 =
b10 0
b10 3
b10 6
1*
#1430000
0*
b1011010 E
#1435000
b1 =
b10 2
b10 0
b10 3
b10 6
1*
#1440000
0*
b1011011 E
#1445000
1$
b11 2
b10 =
b10 0
b10 3
b10 6
1*
#1450000
0*
b1011100 E
#1455000
b101 @
b10111xxxxxxxxxxx %
b10111xxxxxxxxxxx B
1A
b11 =
b10 0
b10 3
b10 6
1*
#1460000
0*
b1011101 E
#1465000
b100 =
b10 0
b10 3
b10 6
1*
#1470000
0*
b1011110 E
#1475000
b101 =
b10 0
b10 3
b10 6
1*
#1480000
0*
b1011111 E
#1485000
b110 =
b10 0
b10 3
b10 6
1*
#1490000
0*
b1100000 E
#1495000
b111 =
b10 0
b10 3
b10 6
1*
#1500000
0*
b1100001 E
#1505000
b1000 =
b10 0
b10 3
b10 6
1*
#1510000
0*
b1100010 E
#1515000
b1001 =
b10 0
b10 3
b10 6
1*
#1520000
0*
b1100011 E
#1525000
0(
b0 =
b101 <
b10 0
b10 3
b10 6
1*
#1530000
0*
b1100100 E
#1535000
b1 =
b1 2
b10 0
b10 3
b10 6
1*
#1540000
0*
b1100101 E
#1545000
0$
b0 2
b10 =
b10 0
b10 3
b10 6
1*
#1550000
0*
b1100110 E
#1555000
0A
b11 =
b10 0
b10 3
b10 6
1*
#1560000
0*
b1100111 E
#1565000
b100 =
b10 0
b10 3
b10 6
1*
#1570000
0*
b1101000 E
#1575000
b101 =
b10 0
b10 3
b10 6
1*
#1580000
0*
b1101001 E
#1585000
b110 =
b10 0
b10 3
b10 6
1*
#1590000
0*
b1101010 E
#1595000
b111 =
b10 0
b10 3
b10 6
1*
#1600000
0*
b1101011 E
#1605000
b1000 =
b10 0
b10 3
b10 6
1*
#1610000
0*
b1101100 E
#1615000
b1001 =
b10 0
b10 3
b10 6
1*
#1620000
0*
b1101101 E
#1625000
1(
b0 =
b10 0
b10 3
b10 6
1*
#1630000
0*
b1101110 E
#1635000
b1 =
b10 2
b10 0
b10 3
b10 6
1*
#1640000
0*
b1101111 E
#1645000
1$
b11 2
b10 =
b10 0
b10 3
b10 6
1*
#1650000
0*
b1110000 E
#1655000
b110 @
b101111xxxxxxxxxx %
b101111xxxxxxxxxx B
1A
b11 =
b10 0
b10 3
b10 6
1*
#1660000
0*
b1110001 E
#1665000
b100 =
b10 0
b10 3
b10 6
1*
#1670000
0*
b1110010 E
#1675000
b101 =
b10 0
b10 3
b10 6
1*
#1680000
0*
b1110011 E
#1685000
b110 =
b10 0
b10 3
b10 6
1*
#1690000
0*
b1110100 E
#1695000
b111 =
b10 0
b10 3
b10 6
1*
#1700000
0*
b1110101 E
#1705000
b1000 =
b10 0
b10 3
b10 6
1*
#1710000
0*
b1110110 E
#1715000
b1001 =
b10 0
b10 3
b10 6
1*
#1720000
0*
b1110111 E
#1725000
0(
b0 =
b110 <
b10 0
b10 3
b10 6
1*
#1730000
0*
b1111000 E
#1735000
b1 =
b1 2
b10 0
b10 3
b10 6
1*
#1740000
0*
b1111001 E
#1745000
0$
b0 2
b10 =
b10 0
b10 3
b10 6
1*
#1750000
0*
b1111010 E
#1755000
0A
b11 =
b10 0
b10 3
b10 6
1*
#1760000
0*
b1111011 E
#1765000
b100 =
b10 0
b10 3
b10 6
1*
#1770000
0*
b1111100 E
#1775000
b101 =
b10 0
b10 3
b10 6
1*
#1780000
0*
b1111101 E
#1785000
b110 =
b10 0
b10 3
b10 6
1*
#1790000
0*
b1111110 E
#1795000
b111 =
b10 0
b10 3
b10 6
1*
#1800000
0*
b1111111 E
#1805000
b1000 =
b10 0
b10 3
b10 6
1*
#1810000
0*
b10000000 E
#1815000
b1001 =
b10 0
b10 3
b10 6
1*
#1820000
0*
b10000001 E
#1825000
1(
b0 =
b10 0
b10 3
b10 6
1*
#1830000
0*
b10000010 E
#1835000
b1 =
b10 2
b10 0
b10 3
b10 6
1*
#1840000
0*
b10000011 E
#1845000
1$
b11 2
b10 =
b10 0
b10 3
b10 6
1*
#1850000
0*
b10000100 E
#1855000
b111 @
b1011111xxxxxxxxx %
b1011111xxxxxxxxx B
1A
b11 =
b10 0
b10 3
b10 6
1*
#1860000
0*
b10000101 E
#1865000
b100 =
b10 0
b10 3
b10 6
1*
#1870000
0*
b10000110 E
#1875000
b101 =
b10 0
b10 3
b10 6
1*
#1880000
0*
b10000111 E
#1885000
b110 =
b10 0
b10 3
b10 6
1*
#1890000
0*
b10001000 E
#1895000
b111 =
b10 0
b10 3
b10 6
1*
#1900000
0*
b10001001 E
#1905000
b1000 =
b10 0
b10 3
b10 6
1*
#1910000
0*
b10001010 E
#1915000
b1001 =
b10 0
b10 3
b10 6
1*
#1920000
0*
b10001011 E
#1925000
0(
b0 =
b111 <
b10 0
b10 3
b10 6
1*
#1930000
0*
b10001100 E
#1935000
b1 =
b1 2
b10 0
b10 3
b10 6
0'
1*
#1940000
0*
b10001101 E
#1945000
0$
b0 2
b10 =
b1 /
b10 0
b10 3
b10 6
1*
#1950000
0*
b10001110 E
#1955000
0#
b0 /
0A
b11 =
b10 0
b10 3
b10 6
1*
#1960000
0*
b10001111 E
#1965000
b100 =
b10 0
b10 3
b10 6
1*
#1970000
0*
b10010000 E
#1975000
b101 =
b10 0
b10 3
b10 6
1*
#1980000
0*
b10010001 E
#1985000
b110 =
b10 0
b10 3
b10 6
1*
#1990000
0*
b10010010 E
#1995000
b111 =
b10 0
b10 3
b10 6
1*
#2000000
0*
b10010011 E
#2005000
b1000 =
b10 0
b10 3
b10 6
1*
#2010000
0*
b10010100 E
#2015000
b1001 =
b10 0
b10 3
b10 6
1*
#2020000
0*
b10010101 E
#2025000
1(
b0 =
b10 0
b10 3
b10 6
1*
#2030000
0*
b10010110 E
#2035000
b1 =
b10 2
b10 0
b10 3
b10 6
1*
#2040000
0*
b10010111 E
#2045000
1$
b11 2
b10 =
b10 0
b10 3
b10 6
1*
#2050000
0*
b10011000 E
#2055000
b1000 @
b10111110xxxxxxxx %
b10111110xxxxxxxx B
1A
b11 =
b10 0
b10 3
b10 6
1*
#2060000
0*
b10011001 E
#2065000
b100 =
b10 0
b10 3
b10 6
1*
#2070000
0*
b10011010 E
#2075000
b101 =
b10 0
b10 3
b10 6
1*
#2080000
0*
b10011011 E
#2085000
b110 =
b10 0
b10 3
b10 6
1*
#2090000
0*
b10011100 E
#2095000
b111 =
b10 0
b10 3
b10 6
1*
#2100000
0*
b10011101 E
#2105000
b1000 =
b10 0
b10 3
b10 6
1*
#2110000
0*
b10011110 E
#2115000
b1001 =
b10 0
b10 3
b10 6
1*
#2120000
0*
b10011111 E
#2125000
0(
b0 =
b1000 <
b10 0
b10 3
b10 6
1*
#2130000
0*
b10100000 E
#2135000
b1 =
b1 2
b10 0
b10 3
b10 6
1'
1*
#2140000
0*
b10100001 E
#2145000
0$
b0 2
b10 =
b10 /
b10 0
b10 3
b10 6
1*
#2150000
0*
b10100010 E
#2155000
1#
b11 /
0A
b11 =
b10 0
b10 3
b10 6
1*
#2160000
0*
b10100011 E
#2165000
b100 =
b10 0
b10 3
b10 6
1*
#2170000
0*
b10100100 E
#2175000
b101 =
b10 0
b10 3
b10 6
1*
#2180000
0*
b10100101 E
#2185000
b110 =
b10 0
b10 3
b10 6
1*
#2190000
0*
b10100110 E
#2195000
b111 =
b10 0
b10 3
b10 6
1*
#2200000
0*
b10100111 E
#2205000
b1000 =
b10 0
b10 3
b10 6
1*
#2210000
0*
b10101000 E
#2215000
b1001 =
b10 0
b10 3
b10 6
1*
#2220000
0*
b10101001 E
#2225000
1(
b0 =
b10 0
b10 3
b10 6
1*
#2230000
0*
b10101010 E
#2235000
b1 =
b10 2
b10 0
b10 3
b10 6
1*
#2240000
0*
b10101011 E
#2245000
1$
b11 2
b10 =
b10 0
b10 3
b10 6
1*
#2250000
0*
b10101100 E
#2255000
b1001 @
b101111101xxxxxxx %
b101111101xxxxxxx B
1A
b11 =
b10 0
b10 3
b10 6
1*
#2260000
0*
b10101101 E
#2265000
b100 =
b10 0
b10 3
b10 6
1*
#2270000
0*
b10101110 E
#2275000
b101 =
b10 0
b10 3
b10 6
1*
#2280000
0*
b10101111 E
#2285000
b110 =
b10 0
b10 3
b10 6
1*
#2290000
0*
b10110000 E
#2295000
b111 =
b10 0
b10 3
b10 6
1*
#2300000
0*
b10110001 E
#2305000
b1000 =
b10 0
b10 3
b10 6
1*
#2310000
0*
b10110010 E
#2315000
b1001 =
b10 0
b10 3
b10 6
1*
#2320000
0*
b10110011 E
#2325000
0(
b0 =
b1001 <
b10 0
b10 3
b10 6
1*
#2330000
0*
b10110100 E
#2335000
b1 =
b1 2
b10 0
b10 3
b10 6
1*
#2340000
0*
b10110101 E
#2345000
0$
b0 2
b10 =
b10 0
b10 3
b10 6
1*
#2350000
0*
b10110110 E
#2355000
0A
b11 =
b10 0
b10 3
b10 6
1*
#2360000
0*
b10110111 E
#2365000
b100 =
b10 0
b10 3
b10 6
1*
#2370000
0*
b10111000 E
#2375000
b101 =
b10 0
b10 3
b10 6
1*
#2380000
0*
b10111001 E
#2385000
b110 =
b10 0
b10 3
b10 6
1*
#2390000
0*
b10111010 E
#2395000
b111 =
b10 0
b10 3
b10 6
1*
#2400000
0*
b10111011 E
#2405000
b1000 =
b10 0
b10 3
b10 6
1*
#2410000
0*
b10111100 E
#2415000
b1001 =
b10 0
b10 3
b10 6
1*
#2420000
0*
b10111101 E
#2425000
1(
b0 =
b10 0
b10 3
b10 6
1*
#2430000
0*
b10111110 E
#2435000
b1 =
b10 2
b10 0
b10 3
b10 6
1*
#2440000
0*
b10111111 E
#2445000
1$
b11 2
b10 =
b10 0
b10 3
b10 6
1*
#2450000
0*
b11000000 E
#2455000
b1010 @
b1011111011xxxxxx %
b1011111011xxxxxx B
1A
b11 =
b10 0
b10 3
b10 6
1*
#2460000
0*
b11000001 E
#2465000
b100 =
b10 0
b10 3
b10 6
1*
#2470000
0*
b11000010 E
#2475000
b101 =
b10 0
b10 3
b10 6
1*
#2480000
0*
b11000011 E
#2485000
b110 =
b10 0
b10 3
b10 6
1*
#2490000
0*
b11000100 E
#2495000
b111 =
b10 0
b10 3
b10 6
1*
#2500000
0*
b11000101 E
#2505000
b1000 =
b10 0
b10 3
b10 6
1*
#2510000
0*
b11000110 E
#2515000
b1001 =
b10 0
b10 3
b10 6
1*
#2520000
0*
b11000111 E
#2525000
0(
b0 =
b1010 <
b10 0
b10 3
b10 6
1*
#2530000
0*
b11001000 E
#2535000
b1 =
b1 2
b10 0
b10 3
b10 6
1*
#2540000
0*
b11001001 E
#2545000
0$
b0 2
b10 =
b10 0
b10 3
b10 6
1*
#2550000
0*
b11001010 E
#2555000
0A
b11 =
b10 0
b10 3
b10 6
1*
#2560000
0*
b11001011 E
#2565000
b100 =
b10 0
b10 3
b10 6
1*
#2570000
0*
b11001100 E
#2575000
b101 =
b10 0
b10 3
b10 6
1*
#2580000
0*
b11001101 E
#2585000
b110 =
b10 0
b10 3
b10 6
1*
#2590000
0*
b11001110 E
#2595000
b111 =
b10 0
b10 3
b10 6
1*
#2600000
0*
b11001111 E
#2605000
b1000 =
b10 0
b10 3
b10 6
1*
#2610000
0*
b11010000 E
#2615000
b1001 =
b10 0
b10 3
b10 6
1*
#2620000
0*
b11010001 E
#2625000
1(
b0 =
b10 0
b10 3
b10 6
1*
#2630000
0*
b11010010 E
#2635000
b1 =
b10 2
b10 0
b10 3
b10 6
1*
#2640000
0*
b11010011 E
#2645000
1$
b11 2
b10 =
b10 0
b10 3
b10 6
1*
#2650000
0*
b11010100 E
#2655000
b1011 @
b10111110111xxxxx %
b10111110111xxxxx B
1A
b11 =
b10 0
b10 3
b10 6
1*
#2660000
0*
b11010101 E
#2665000
b100 =
b10 0
b10 3
b10 6
1*
#2670000
0*
b11010110 E
#2675000
b101 =
b10 0
b10 3
b10 6
1*
#2680000
0*
b11010111 E
#2685000
b110 =
b10 0
b10 3
b10 6
1*
#2690000
0*
b11011000 E
#2695000
b111 =
b10 0
b10 3
b10 6
1*
#2700000
0*
b11011001 E
#2705000
b1000 =
b10 0
b10 3
b10 6
1*
#2710000
0*
b11011010 E
#2715000
b1001 =
b10 0
b10 3
b10 6
1*
#2720000
0*
b11011011 E
#2725000
0(
b0 =
b1011 <
b10 0
b10 3
b10 6
1*
#2730000
0*
b11011100 E
#2735000
b1 =
b1 2
b10 0
b10 3
b10 6
0'
1*
#2740000
0*
b11011101 E
#2745000
0$
b0 2
b10 =
b1 /
b10 0
b10 3
b10 6
1*
#2750000
0*
b11011110 E
#2755000
0#
b0 /
0A
b11 =
b10 0
b10 3
b10 6
1*
#2760000
0*
b11011111 E
#2765000
b100 =
b10 0
b10 3
b10 6
1*
#2770000
0*
b11100000 E
#2775000
b101 =
b10 0
b10 3
b10 6
1*
#2780000
0*
b11100001 E
#2785000
b110 =
b10 0
b10 3
b10 6
1*
#2790000
0*
b11100010 E
#2795000
b111 =
b10 0
b10 3
b10 6
1*
#2800000
0*
b11100011 E
#2805000
b1000 =
b10 0
b10 3
b10 6
1*
#2810000
0*
b11100100 E
#2815000
b1001 =
b10 0
b10 3
b10 6
1*
#2820000
0*
b11100101 E
#2825000
1(
b0 =
b10 0
b10 3
b10 6
1*
#2830000
0*
b11100110 E
#2835000
b1 =
b10 2
b10 0
b10 3
b10 6
1*
#2840000
0*
b11100111 E
#2845000
1$
b11 2
b10 =
b10 0
b10 3
b10 6
1*
#2850000
0*
b11101000 E
#2855000
b1100 @
b101111101110xxxx %
b101111101110xxxx B
1A
b11 =
b10 0
b10 3
b10 6
1*
#2860000
0*
b11101001 E
#2865000
b100 =
b10 0
b10 3
b10 6
1*
#2870000
0*
b11101010 E
#2875000
b101 =
b10 0
b10 3
b10 6
1*
#2880000
0*
b11101011 E
#2885000
b110 =
b10 0
b10 3
b10 6
1*
#2890000
0*
b11101100 E
#2895000
b111 =
b10 0
b10 3
b10 6
1*
#2900000
0*
b11101101 E
#2905000
b1000 =
b10 0
b10 3
b10 6
1*
#2910000
0*
b11101110 E
#2915000
b1001 =
b10 0
b10 3
b10 6
1*
#2920000
0*
b11101111 E
#2925000
0(
b0 =
b1100 <
b10 0
b10 3
b10 6
1*
#2930000
0*
b11110000 E
#2935000
b1 =
b1 2
b10 0
b10 3
b10 6
1*
#2940000
0*
b11110001 E
#2945000
0$
b0 2
b10 =
b10 0
b10 3
b10 6
1*
#2950000
0*
b11110010 E
#2955000
0A
b11 =
b10 0
b10 3
b10 6
1*
#2960000
0*
b11110011 E
#2965000
b100 =
b10 0
b10 3
b10 6
1*
