ALLCODEHERE/UART_PROTOCOL /Find_IntervalSampleAngle_tb.vcd
$date
	Sun Dec  3 21:50:56 2023
$end
$version
	Icarus Verilog
$end
$timescale
	1ps
$end
$scope module Find_IntervalSampleAngle_tb $end
$var wire 1 ! error_out $end
$var wire 1 " busy_out $end
$var wire 16 # IntervalSampleAngle [15:0] $end
$var wire 1 $ Found_IntervalAngle $end
$var reg 1 % Find_IntervalAngle $end
$var reg 16 & FirstSampleAngle [15:0] $end
$var reg 16 ' LastSampleAngle [15:0] $end
$var reg 1 ( clk_in $end
$var reg 16 ) package_Sample_Num [15:0] $end
$var reg 1 * rst_in $end
$scope module myIntervalAngle $end
$var wire 16 + FirstSampleAngle [15:0] $end
$var wire 16 , LastSampleAngle [15:0] $end
$var wire 1 ( clk_in $end
$var wire 1 % data_valid_in $end
$var wire 16 - package_Sample_Num [15:0] $end
$var wire 1 * rst_in $end
$var wire 16 . remainder [15:0] $end
$var wire 16 / quotient [15:0] $end
$var wire 1 ! error_out $end
$var wire 1 0 division_done $end
$var wire 1 " busy_out $end
$var reg 16 1 IntervalSampleAngle [15:0] $end
$var reg 1 $ data_valid_out $end
$var reg 16 2 dividend [15:0] $end
$var reg 16 3 divisor [15:0] $end
$var reg 1 4 valid_division $end
$var integer 32 5 state [31:0] $end
$scope module mydividerx $end
$var wire 1 ( clk_in $end
$var wire 1 4 data_valid_in $end
$var wire 16 6 dividend_in [15:0] $end
$var wire 16 7 divisor_in [15:0] $end
$var wire 1 * rst_in $end
$var parameter 32 8 DIVIDING $end
$var parameter 32 9 RESTING $end
$var parameter 32 : WIDTH $end
$var reg 1 " busy_out $end
$var reg 1 0 data_valid_out $end
$var reg 16 ; dividend [15:0] $end
$var reg 16 < divisor [15:0] $end
$var reg 1 ! error_out $end
$var reg 16 = quotient [15:0] $end
$var reg 16 > quotient_out [15:0] $end
$var reg 16 ? remainder_out [15:0] $end
$var reg 1 @ state $end
$upscope $end
$upscope $end
$scope begin $ivl_for_loop0 $end
$var integer 32 A i [31:0] $end
$upscope $end
$upscope $end
$enddefinitions $end
$comment Show the parameter values. $end
$dumpall
b10000 :
b0 9
b1 8
$end
#0
$dumpvars
b0 A
x@
bx ?
bx >
bx =
bx <
bx ;
bx 7
bx 6
b0 5
x4
bx 3
bx 2
bx 1
x0
bx /
bx .
bx -
bx ,
bx +
x*
bx )
0(
bx '
bx &
x%
x$
bx #
x"
x!
$end
#5000
0$
04
1(
#10000
1*
0(
#15000
b0 #
b0 1
00
0@
0!
0"
b0 .
b0 ?
b0 <
b0 ;
b0 =
1(
#20000
0*
0(
#25000
1(
#30000
b1110 3
b1110 7
b111111100000 2
b111111100000 6
1%
b1111 )
b1111 -
b10101010001010 '
b10101010001010 ,
b1101010101010 &
b1101010101010 +
0(
#35000
b1 5
1(
#40000
0%
0(
#45000
b10 5
14
1(
#50000
0(
b1 A
#55000
1"
b1110 <
b111111100000 ;
1@
1(
#60000
0(
b10 A
#65000
b111111010010 ;
b1 =
1(
#70000
0(
b11 A
#75000
b111111000100 ;
b10 =
1(
#80000
0(
b100 A
#85000
b111110110110 ;
b11 =
1(
#90000
0(
b101 A
#95000
b111110101000 ;
b100 =
1(
#100000
0(
b110 A
#105000
b111110011010 ;
b101 =
1(
#110000
0(
b111 A
#115000
b111110001100 ;
b110 =
1(
#120000
0(
b1000 A
#125000
b111101111110 ;
b111 =
1(
#130000
0(
b1001 A
#135000
b111101110000 ;
b1000 =
1(
#140000
0(
b1010 A
#145000
b111101100010 ;
b1001 =
1(
#150000
0(
b1011 A
#155000
b111101010100 ;
b1010 =
1(
#160000
0(
b1100 A
#165000
b111101000110 ;
b1011 =
1(
#170000
0(
b1101 A
#175000
b111100111000 ;
b1100 =
1(
#180000
0(
b1110 A
#185000
b111100101010 ;
b1101 =
1(
#190000
0(
b1111 A
#195000
b111100011100 ;
b1110 =
1(
#200000
0(
b10000 A
#205000
b111100001110 ;
b1111 =
1(
#210000
0(
b10001 A
#215000
b111100000000 ;
b10000 =
1(
#220000
0(
b10010 A
#225000
b111011110010 ;
b10001 =
1(
#230000
0(
b10011 A
#235000
b111011100100 ;
b10010 =
1(
#240000
0(
b10100 A
#245000
b111011010110 ;
b10011 =
1(
#250000
0(
b10101 A
#255000
b111011001000 ;
b10100 =
1(
#260000
0(
b10110 A
#265000
b111010111010 ;
b10101 =
1(
#270000
0(
b10111 A
#275000
b111010101100 ;
b10110 =
1(
#280000
0(
b11000 A
#285000
b111010011110 ;
b10111 =
1(
#290000
0(
b11001 A
#295000
b111010010000 ;
b11000 =
1(
#300000
0(
b11010 A
#305000
b111010000010 ;
b11001 =
1(
#310000
0(
b11011 A
#315000
b111001110100 ;
b11010 =
1(
#320000
0(
b11100 A
#325000
b111001100110 ;
b11011 =
1(
#330000
0(
b11101 A
#335000
b111001011000 ;
b11100 =
1(
#340000
0(
b11110 A
#345000
b111001001010 ;
b11101 =
1(
#350000
0(
b11111 A
#355000
b111000111100 ;
b11110 =
1(
#360000
0(
b100000 A
#365000
b111000101110 ;
b11111 =
1(
#370000
0(
b100001 A
#375000
b111000100000 ;
b100000 =
1(
#380000
0(
b100010 A
#385000
b111000010010 ;
b100001 =
1(
#390000
0(
b100011 A
#395000
b111000000100 ;
b100010 =
1(
#400000
0(
b100100 A
#405000
b110111110110 ;
b100011 =
1(
#410000
0(
b100101 A
#415000
b110111101000 ;
b100100 =
1(
#420000
0(
b100110 A
#425000
b110111011010 ;
b100101 =
1(
#430000
0(
b100111 A
#435000
b110111001100 ;
b100110 =
1(
#440000
0(
b101000 A
#445000
b110110111110 ;
b100111 =
1(
#450000
0(
b101001 A
#455000
b110110110000 ;
b101000 =
1(
#460000
0(
b101010 A
#465000
b110110100010 ;
b101001 =
1(
#470000
0(
b101011 A
#475000
b110110010100 ;
b101010 =
1(
#480000
0(
b101100 A
#485000
b110110000110 ;
b101011 =
1(
#490000
0(
b101101 A
#495000
b110101111000 ;
b101100 =
1(
#500000
0(
b101110 A
#505000
b110101101010 ;
b101101 =
1(
#510000
0(
b101111 A
#515000
b110101011100 ;
b101110 =
1(
#520000
0(
b110000 A
#525000
b110101001110 ;
b101111 =
1(
#530000
0(
b110001 A
#535000
b110101000000 ;
b110000 =
1(
#540000
0(
b110010 A
#545000
b110100110010 ;
b110001 =
1(
#550000
0(
b110011 A
#555000
b110100100100 ;
b110010 =
1(
#560000
0(
b110100 A
#565000
b110100010110 ;
b110011 =
1(
#570000
0(
b110101 A
#575000
b110100001000 ;
b110100 =
1(
#580000
0(
b110110 A
#585000
b110011111010 ;
b110101 =
1(
#590000
0(
b110111 A
#595000
b110011101100 ;
b110110 =
1(
#600000
0(
b111000 A
#605000
b110011011110 ;
b110111 =
1(
#610000
0(
b111001 A
#615000
b110011010000 ;
b111000 =
1(
#620000
0(
b111010 A
#625000
b110011000010 ;
b111001 =
1(
#630000
0(
b111011 A
#635000
b110010110100 ;
b111010 =
1(
#640000
0(
b111100 A
#645000
b110010100110 ;
b111011 =
1(
#650000
0(
b111101 A
#655000
b110010011000 ;
b111100 =
1(
#660000
0(
b111110 A
#665000
b110010001010 ;
b111101 =
1(
#670000
0(
b111111 A
#675000
b110001111100 ;
b111110 =
1(
#680000
0(
b1000000 A
#685000
b110001101110 ;
b111111 =
1(
#690000
0(
b1000001 A
#695000
b110001100000 ;
b1000000 =
1(
#700000
0(
b1000010 A
#705000
b110001010010 ;
b1000001 =
1(
#710000
0(
b1000011 A
#715000
b110001000100 ;
b1000010 =
1(
#720000
0(
b1000100 A
#725000
b110000110110 ;
b1000011 =
1(
#730000
0(
b1000101 A
#735000
b110000101000 ;
b1000100 =
1(
#740000
0(
b1000110 A
#745000
b110000011010 ;
b1000101 =
1(
#750000
0(
b1000111 A
#755000
b110000001100 ;
b1000110 =
1(
#760000
0(
b1001000 A
#765000
b101111111110 ;
b1000111 =
1(
#770000
0(
b1001001 A
#775000
b101111110000 ;
b1001000 =
1(
#780000
0(
b1001010 A
#785000
b101111100010 ;
b1001001 =
1(
#790000
0(
b1001011 A
#795000
b101111010100 ;
b1001010 =
1(
#800000
0(
b1001100 A
#805000
b101111000110 ;
b1001011 =
1(
#810000
0(
b1001101 A
#815000
b101110111000 ;
b1001100 =
1(
#820000
0(
b1001110 A
#825000
b101110101010 ;
b1001101 =
1(
#830000
0(
b1001111 A
#835000
b101110011100 ;
b1001110 =
1(
#840000
0(
b1010000 A
#845000
b101110001110 ;
b1001111 =
1(
#850000
0(
b1010001 A
#855000
b101110000000 ;
b1010000 =
1(
#860000
0(
b1010010 A
#865000
b101101110010 ;
b1010001 =
1(
#870000
0(
b1010011 A
#875000
b101101100100 ;
b1010010 =
1(
#880000
0(
b1010100 A
#885000
b101101010110 ;
b1010011 =
1(
#890000
0(
b1010101 A
#895000
b101101001000 ;
b1010100 =
1(
#900000
0(
b1010110 A
#905000
b101100111010 ;
b1010101 =
1(
#910000
0(
b1010111 A
#915000
b101100101100 ;
b1010110 =
1(
#920000
0(
b1011000 A
#925000
b101100011110 ;
b1010111 =
1(
#930000
0(
b1011001 A
#935000
b101100010000 ;
b1011000 =
1(
#940000
0(
b1011010 A
#945000
b101100000010 ;
b1011001 =
1(
#950000
0(
b1011011 A
#955000
b101011110100 ;
b1011010 =
1(
#960000
0(
b1011100 A
#965000
b101011100110 ;
b1011011 =
1(
#970000
0(
b1011101 A
#975000
b101011011000 ;
b1011100 =
1(
#980000
0(
b1011110 A
#985000
b101011001010 ;
b1011101 =
1(
#990000
0(
b1011111 A
#995000
b101010111100 ;
b1011110 =
1(
#1000000
0(
b1100000 A
#1005000
b101010101110 ;
b1011111 =
1(
#1010000
0(
b1100001 A
#1015000
b101010100000 ;
b1100000 =
1(
#1020000
0(
b1100010 A
#1025000
b101010010010 ;
b1100001 =
1(
#1030000
0(
b1100011 A
#1035000
b101010000100 ;
b1100010 =
1(
#1040000
0(
b1100100 A
#1045000
b101001110110 ;
b1100011 =
1(
#1050000
0(
b1100101 A
#1055000
b101001101000 ;
b1100100 =
1(
#1060000
0(
b1100110 A
#1065000
b101001011010 ;
b1100101 =
1(
#1070000
0(
b1100111 A
#1075000
b101001001100 ;
b1100110 =
1(
#1080000
0(
b1101000 A
#1085000
b101000111110 ;
b1100111 =
1(
#1090000
0(
b1101001 A
#1095000
b101000110000 ;
b1101000 =
1(
#1100000
0(
b1101010 A
#1105000
b101000100010 ;
b1101001 =
1(
#1110000
0(
b1101011 A
#1115000
b101000010100 ;
b1101010 =
1(
#1120000
0(
b1101100 A
#1125000
b101000000110 ;
b1101011 =
1(
#1130000
0(
b1101101 A
#1135000
b100111111000 ;
b1101100 =
1(
#1140000
0(
b1101110 A
#1145000
b100111101010 ;
b1101101 =
1(
#1150000
0(
b1101111 A
#1155000
b100111011100 ;
b1101110 =
1(
#1160000
0(
b1110000 A
#1165000
b100111001110 ;
b1101111 =
1(
#1170000
0(
b1110001 A
#1175000
b100111000000 ;
b1110000 =
1(
#1180000
0(
b1110010 A
#1185000
b100110110010 ;
b1110001 =
1(
#1190000
0(
b1110011 A
#1195000
b100110100100 ;
b1110010 =
1(
#1200000
0(
b1110100 A
#1205000
b100110010110 ;
b1110011 =
1(
#1210000
0(
b1110101 A
#1215000
b100110001000 ;
b1110100 =
1(
#1220000
0(
b1110110 A
#1225000
b100101111010 ;
b1110101 =
1(
#1230000
0(
b1110111 A
#1235000
b100101101100 ;
b1110110 =
1(
#1240000
0(
b1111000 A
#1245000
b100101011110 ;
b1110111 =
1(
#1250000
0(
b1111001 A
#1255000
b100101010000 ;
b1111000 =
1(
#1260000
0(
b1111010 A
#1265000
b100101000010 ;
b1111001 =
1(
#1270000
0(
b1111011 A
#1275000
b100100110100 ;
b1111010 =
1(
#1280000
0(
b1111100 A
#1285000
b100100100110 ;
b1111011 =
1(
#1290000
0(
b1111101 A
#1295000
b100100011000 ;
b1111100 =
1(
#1300000
0(
b1111110 A
#1305000
b100100001010 ;
b1111101 =
1(
#1310000
0(
b1111111 A
#1315000
b100011111100 ;
b1111110 =
1(
#1320000
0(
b10000000 A
#1325000
b100011101110 ;
b1111111 =
1(
#1330000
0(
b10000001 A
#1335000
b100011100000 ;
b10000000 =
1(
#1340000
0(
b10000010 A
#1345000
b100011010010 ;
b10000001 =
1(
#1350000
0(
b10000011 A
#1355000
b100011000100 ;
b10000010 =
1(
#1360000
0(
b10000100 A
#1365000
b100010110110 ;
b10000011 =
1(
#1370000
0(
b10000101 A
#1375000
b100010101000 ;
b10000100 =
1(
#1380000
0(
b10000110 A
#1385000
b100010011010 ;
b10000101 =
1(
#1390000
0(
b10000111 A
#1395000
b100010001100 ;
b10000110 =
1(
#1400000
0(
b10001000 A
#1405000
b100001111110 ;
b10000111 =
1(
#1410000
0(
b10001001 A
#1415000
b100001110000 ;
b10001000 =
1(
#1420000
0(
b10001010 A
#1425000
b100001100010 ;
b10001001 =
1(
#1430000
0(
b10001011 A
#1435000
b100001010100 ;
b10001010 =
1(
#1440000
0(
b10001100 A
#1445000
b100001000110 ;
b10001011 =
1(
#1450000
0(
b10001101 A
#1455000
b100000111000 ;
b10001100 =
1(
#1460000
0(
b10001110 A
#1465000
b100000101010 ;
b10001101 =
1(
#1470000
0(
b10001111 A
#1475000
b100000011100 ;
b10001110 =
1(
#1480000
0(
b10010000 A
#1485000
b100000001110 ;
b10001111 =
1(
#1490000
0(
b10010001 A
#1495000
b100000000000 ;
b10010000 =
1(
#1500000
0(
b10010010 A
#1505000
b11111110010 ;
b10010001 =
1(
#1510000
0(
b10010011 A
#1515000
b11111100100 ;
b10010010 =
1(
#1520000
0(
b10010100 A
#1525000
b11111010110 ;
b10010011 =
1(
#1530000
0(
b10010101 A
#1535000
b11111001000 ;
b10010100 =
1(
#1540000
0(
b10010110 A
#1545000
b11110111010 ;
b10010101 =
1(
#1550000
0(
b10010111 A
#1555000
b11110101100 ;
b10010110 =
1(
#1560000
0(
b10011000 A
#1565000
b11110011110 ;
b10010111 =
1(
#1570000
0(
b10011001 A
#1575000
b11110010000 ;
b10011000 =
1(
#1580000
0(
b10011010 A
#1585000
b11110000010 ;
b10011001 =
1(
#1590000
0(
b10011011 A
#1595000
b11101110100 ;
b10011010 =
1(
#1600000
0(
b10011100 A
#1605000
b11101100110 ;
b10011011 =
1(
#1610000
0(
b10011101 A
#1615000
b11101011000 ;
b10011100 =
1(
#1620000
0(
b10011110 A
#1625000
b11101001010 ;
b10011101 =
1(
#1630000
0(
b10011111 A
#1635000
b11100111100 ;
b10011110 =
1(
#1640000
0(
b10100000 A
#1645000
b11100101110 ;
b10011111 =
1(
#1650000
0(
b10100001 A
#1655000
b11100100000 ;
b10100000 =
1(
#1660000
0(
b10100010 A
#1665000
b11100010010 ;
b10100001 =
1(
#1670000
0(
b10100011 A
#1675000
b11100000100 ;
b10100010 =
1(
#1680000
0(
b10100100 A
#1685000
b11011110110 ;
b10100011 =
1(
#1690000
0(
b10100101 A
#1695000
b11011101000 ;
b10100100 =
1(
#1700000
0(
b10100110 A
#1705000
b11011011010 ;
b10100101 =
1(
#1710000
0(
b10100111 A
#1715000
b11011001100 ;
b10100110 =
1(
#1720000
0(
b10101000 A
#1725000
b11010111110 ;
b10100111 =
1(
#1730000
0(
b10101001 A
#1735000
b11010110000 ;
b10101000 =
1(
#1740000
0(
b10101010 A
#1745000
b11010100010 ;
b10101001 =
1(
#1750000
0(
b10101011 A
#1755000
b11010010100 ;
b10101010 =
1(
#1760000
0(
b10101100 A
#1765000
b11010000110 ;
b10101011 =
1(
#1770000
0(
b10101101 A
#1775000
b11001111000 ;
b10101100 =
1(
#1780000
0(
b10101110 A
#1785000
b11001101010 ;
b10101101 =
1(
#1790000
0(
b10101111 A
#1795000
b11001011100 ;
b10101110 =
1(
#1800000
0(
b10110000 A
#1805000
b11001001110 ;
b10101111 =
1(
#1810000
0(
b10110001 A
#1815000
b11001000000 ;
b10110000 =
1(
#1820000
0(
b10110010 A
#1825000
b11000110010 ;
b10110001 =
1(
#1830000
0(
b10110011 A
#1835000
b11000100100 ;
b10110010 =
1(
#1840000
0(
b10110100 A
#1845000
b11000010110 ;
b10110011 =
1(
#1850000
0(
b10110101 A
#1855000
b11000001000 ;
b10110100 =
1(
#1860000
0(
b10110110 A
#1865000
b10111111010 ;
b10110101 =
1(
#1870000
0(
b10110111 A
#1875000
b10111101100 ;
b10110110 =
1(
#1880000
0(
b10111000 A
#1885000
b10111011110 ;
b10110111 =
1(
#1890000
0(
b10111001 A
#1895000
b10111010000 ;
b10111000 =
1(
#1900000
0(
b10111010 A
#1905000
b10111000010 ;
b10111001 =
1(
#1910000
0(
b10111011 A
#1915000
b10110110100 ;
b10111010 =
1(
#1920000
0(
b10111100 A
#1925000
b10110100110 ;
b10111011 =
1(
#1930000
0(
b10111101 A
#1935000
b10110011000 ;
b10111100 =
1(
#1940000
0(
b10111110 A
#1945000
b10110001010 ;
b10111101 =
1(
#1950000
0(
b10111111 A
#1955000
b10101111100 ;
b10111110 =
1(
#1960000
0(
b11000000 A
#1965000
b10101101110 ;
b10111111 =
1(
#1970000
0(
b11000001 A
#1975000
b10101100000 ;
b11000000 =
1(
#1980000
0(
b11000010 A
#1985000
b10101010010 ;
b11000001 =
1(
#1990000
0(
b11000011 A
#1995000
b10101000100 ;
b11000010 =
1(
#2000000
0(
b11000100 A
#2005000
b10100110110 ;
b11000011 =
1(
#2010000
0(
b11000101 A
#2015000
b10100101000 ;
b11000100 =
1(
#2020000
0(
b11000110 A
#2025000
b10100011010 ;
b11000101 =
1(
#2030000
0(
b11000111 A
#2035000
b10100001100 ;
b11000110 =
1(
#2040000
0(
b11001000 A
#2045000
b10011111110 ;
b11000111 =
1(
#2050000
0(
b11001001 A
#2055000
b10011110000 ;
b11001000 =
1(
#2060000
0(
b11001010 A
#2065000
b10011100010 ;
b11001001 =
1(
#2070000
0(
b11001011 A
#2075000
b10011010100 ;
b11001010 =
1(
#2080000
0(
b11001100 A
#2085000
b10011000110 ;
b11001011 =
1(
#2090000
0(
b11001101 A
#2095000
b10010111000 ;
b11001100 =
1(
#2100000
0(
b11001110 A
#2105000
b10010101010 ;
b11001101 =
1(
#2110000
0(
b11001111 A
#2115000
b10010011100 ;
b11001110 =
1(
#2120000
0(
b11010000 A
#2125000
b10010001110 ;
b11001111 =
1(
#2130000
0(
b11010001 A
#2135000
b10010000000 ;
b11010000 =
1(
#2140000
0(
b11010010 A
#2145000
b10001110010 ;
b11010001 =
1(
#2150000
0(
b11010011 A
#2155000
b10001100100 ;
b11010010 =
1(
#2160000
0(
b11010100 A
#2165000
b10001010110 ;
b11010011 =
1(
#2170000
0(
b11010101 A
#2175000
b10001001000 ;
b11010100 =
1(
#2180000
0(
b11010110 A
#2185000
b10000111010 ;
b11010101 =
1(
#2190000
0(
b11010111 A
#2195000
b10000101100 ;
b11010110 =
1(
#2200000
0(
b11011000 A
#2205000
b10000011110 ;
b11010111 =
1(
#2210000
0(
b11011001 A
#2215000
b10000010000 ;
b11011000 =
1(
#2220000
0(
b11011010 A
#2225000
b10000000010 ;
b11011001 =
1(
#2230000
0(
b11011011 A
#2235000
b1111110100 ;
b11011010 =
1(
#2240000
0(
b11011100 A
#2245000
b1111100110 ;
b11011011 =
1(
#2250000
0(
b11011101 A
#2255000
b1111011000 ;
b11011100 =
1(
#2260000
0(
b11011110 A
#2265000
b1111001010 ;
b11011101 =
1(
#2270000
0(
b11011111 A
#2275000
b1110111100 ;
b11011110 =
1(
#2280000
0(
b11100000 A
#2285000
b1110101110 ;
b11011111 =
1(
#2290000
0(
b11100001 A
#2295000
b1110100000 ;
b11100000 =
1(
#2300000
0(
b11100010 A
#2305000
b1110010010 ;
b11100001 =
1(
#2310000
0(
b11100011 A
#2315000
b1110000100 ;
b11100010 =
1(
#2320000
0(
b11100100 A
#2325000
b1101110110 ;
b11100011 =
1(
#2330000
0(
b11100101 A
#2335000
b1101101000 ;
b11100100 =
1(
#2340000
0(
b11100110 A
#2345000
b1101011010 ;
b11100101 =
1(
#2350000
0(
b11100111 A
#2355000
b1101001100 ;
b11100110 =
1(
#2360000
0(
b11101000 A
#2365000
b1100111110 ;
b11100111 =
1(
#2370000
0(
b11101001 A
#2375000
b1100110000 ;
b11101000 =
1(
#2380000
0(
b11101010 A
#2385000
b1100100010 ;
b11101001 =
1(
#2390000
0(
b11101011 A
#2395000
b1100010100 ;
b11101010 =
1(
#2400000
0(
b11101100 A
#2405000
b1100000110 ;
b11101011 =
1(
#2410000
0(
b11101101 A
#2415000
b1011111000 ;
b11101100 =
1(
#2420000
0(
b11101110 A
#2425000
b1011101010 ;
b11101101 =
1(
#2430000
0(
b11101111 A
#2435000
b1011011100 ;
b11101110 =
1(
#2440000
0(
b11110000 A
#2445000
b1011001110 ;
b11101111 =
1(
#2450000
0(
b11110001 A
#2455000
b1011000000 ;
b11110000 =
1(
#2460000
0(
b11110010 A
#2465000
b1010110010 ;
b11110001 =
1(
#2470000
0(
b11110011 A
#2475000
b1010100100 ;
b11110010 =
1(
#2480000
0(
b11110100 A
#2485000
b1010010110 ;
b11110011 =
1(
#2490000
0(
b11110101 A
#2495000
b1010001000 ;
b11110100 =
1(
#2500000
0(
b11110110 A
#2505000
b1001111010 ;
b11110101 =
1(
#2510000
0(
b11110111 A
#2515000
b1001101100 ;
b11110110 =
1(
#2520000
0(
b11111000 A
#2525000
b1001011110 ;
b11110111 =
1(
#2530000
0(
b11111001 A
#2535000
b1001010000 ;
b11111000 =
1(
#2540000
0(
b11111010 A
#2545000
b1001000010 ;
b11111001 =
1(
#2550000
0(
b11111011 A
#2555000
b1000110100 ;
b11111010 =
1(
#2560000
0(
b11111100 A
#2565000
b1000100110 ;
b11111011 =
1(
#2570000
0(
b11111101 A
#2575000
b1000011000 ;
b11111100 =
1(
#2580000
0(
b11111110 A
#2585000
b1000001010 ;
b11111101 =
1(
#2590000
0(
b11111111 A
#2595000
b111111100 ;
b11111110 =
1(
#2600000
0(
b100000000 A
#2605000
b111101110 ;
b11111111 =
1(
#2610000
0(
b100000001 A
#2615000
b111100000 ;
b100000000 =
1(
#2620000
0(
b100000010 A
#2625000
b111010010 ;
b100000001 =
1(
#2630000
0(
b100000011 A
#2635000
b111000100 ;
b100000010 =
1(
#2640000
0(
b100000100 A
#2645000
b110110110 ;
b100000011 =
1(
#2650000
0(
b100000101 A
#2655000
b110101000 ;
b100000100 =
1(
#2660000
0(
b100000110 A
#2665000
b110011010 ;
b100000101 =
1(
#2670000
0(
b100000111 A
#2675000
b110001100 ;
b100000110 =
1(
#2680000
0(
b100001000 A
#2685000
b101111110 ;
b100000111 =
1(
#2690000
0(
b100001001 A
#2695000
b101110000 ;
b100001000 =
1(
#2700000
0(
b100001010 A
#2705000
b101100010 ;
b100001001 =
1(
#2710000
0(
b100001011 A
#2715000
b101010100 ;
b100001010 =
1(
#2720000
0(
b100001100 A
#2725000
b101000110 ;
b100001011 =
1(
#2730000
0(
b100001101 A
#2735000
b100111000 ;
b100001100 =
1(
#2740000
0(
b100001110 A
#2745000
b100101010 ;
b100001101 =
1(
#2750000
0(
b100001111 A
#2755000
b100011100 ;
b100001110 =
1(
#2760000
0(
b100010000 A
#2765000
b100001110 ;
b100001111 =
1(
#2770000
0(
b100010001 A
#2775000
b100000000 ;
b100010000 =
1(
#2780000
0(
b100010010 A
#2785000
b11110010 ;
b100010001 =
1(
#2790000
0(
b100010011 A
#2795000
b11100100 ;
b100010010 =
1(
#2800000
0(
b100010100 A
#2805000
b11010110 ;
b100010011 =
1(
#2810000
0(
b100010101 A
#2815000
b11001000 ;
b100010100 =
1(
#2820000
0(
b100010110 A
#2825000
b10111010 ;
b100010101 =
1(
#2830000
0(
b100010111 A
#2835000
b10101100 ;
b100010110 =
1(
#2840000
0(
b100011000 A
#2845000
b10011110 ;
b100010111 =
1(
#2850000
0(
b100011001 A
#2855000
b10010000 ;
b100011000 =
1(
#2860000
0(
b100011010 A
#2865000
b10000010 ;
b100011001 =
1(
#2870000
0(
b100011011 A
#2875000
b1110100 ;
b100011010 =
1(
#2880000
0(
b100011100 A
#2885000
b1100110 ;
b100011011 =
1(
#2890000
0(
b100011101 A
#2895000
b1011000 ;
b100011100 =
1(
#2900000
0(
b100011110 A
#2905000
b1001010 ;
b100011101 =
1(
#2910000
0(
b100011111 A
#2915000
b111100 ;
b100011110 =
1(
#2920000
0(
b100100000 A
#2925000
b101110 ;
b100011111 =
1(
#2930000
0(
b100100001 A
#2935000
b100000 ;
b100100000 =
1(
#2940000
0(
b100100010 A
#2945000
b10010 ;
b100100001 =
1(
#2950000
0(
b100100011 A
#2955000
b100 ;
b100100010 =
1(
#2960000
0(
b100100100 A
#2965000
10
0"
b100100010 /
b100100010 >
b100 .
b100 ?
0@
1(
#2970000
0(
b100100101 A
#2975000
b11 5
b100100010 #
b100100010 1
04
00
1"
b111111100000 ;
b0 =
1@
1(
#2980000
0(
b100100110 A
#2985000
b111111010010 ;
b1 =
b0 5
1$
1(
#2990000
0(
b100100111 A
#2995000
0$
b111111000100 ;
b10 =
1(
#3000000
0(
b100101000 A
#3005000
b111110110110 ;
b11 =
1(
#3010000
0(
b100101001 A
#3015000
b111110101000 ;
b100 =
1(
#3020000
0(
b100101010 A
#3025000
b111110011010 ;
b101 =
1(
#3030000
0(
b100101011 A
#3035000
b111110001100 ;
b110 =
1(
#3040000
0(
b100101100 A
#3045000
b111101111110 ;
b111 =
1(
#3050000
0(
b100101101 A
#3055000
b111101110000 ;
b1000 =
1(
#3060000
0(
b100101110 A
#3065000
b111101100010 ;
b1001 =
1(
#3070000
0(
b100101111 A
#3075000
b111101010100 ;
b1010 =
1(
#3080000
0(
b100110000 A
#3085000
b111101000110 ;
b1011 =
1(
#3090000
0(
b100110001 A
#3095000
b111100111000 ;
b1100 =
1(
#3100000
0(
b100110010 A
#3105000
b111100101010 ;
b1101 =
1(
#3110000
0(
b100110011 A
#3115000
b111100011100 ;
b1110 =
1(
#3120000
0(
b100110100 A
#3125000
b111100001110 ;
b1111 =
1(
#3130000
0(
b100110101 A
#3135000
b111100000000 ;
b10000 =
1(
#3140000
0(
b100110110 A
#3145000
b111011110010 ;
b10001 =
1(
#3150000
0(
b100110111 A
#3155000
b111011100100 ;
b10010 =
1(
#3160000
0(
b100111000 A
#3165000
b111011010110 ;
b10011 =
1(
#3170000
0(
b100111001 A
#3175000
b111011001000 ;
b10100 =
1(
#3180000
0(
b100111010 A
#3185000
b111010111010 ;
b10101 =
1(
#3190000
0(
b100111011 A
#3195000
b111010101100 ;
b10110 =
1(
#3200000
0(
b100111100 A
#3205000
b111010011110 ;
b10111 =
1(
#3210000
0(
b100111101 A
#3215000
b111010010000 ;
b11000 =
1(
#3220000
0(
b100111110 A
#3225000
b111010000010 ;
b11001 =
1(
#3230000
0(
b100111111 A
#3235000
b111001110100 ;
b11010 =
1(
#3240000
0(
b101000000 A
#3245000
b111001100110 ;
b11011 =
1(
#3250000
0(
b101000001 A
#3255000
b111001011000 ;
b11100 =
1(
#3260000
0(
b101000010 A
#3265000
b111001001010 ;
b11101 =
1(
#3270000
0(
b101000011 A
#3275000
b111000111100 ;
b11110 =
1(
#3280000
0(
b101000100 A
#3285000
b111000101110 ;
b11111 =
1(
#3290000
0(
b101000101 A
#3295000
b111000100000 ;
b100000 =
1(
#3300000
0(
b101000110 A
#3305000
b111000010010 ;
b100001 =
1(
#3310000
0(
b101000111 A
#3315000
b111000000100 ;
b100010 =
1(
#3320000
0(
b101001000 A
#3325000
b110111110110 ;
b100011 =
1(
#3330000
0(
b101001001 A
#3335000
b110111101000 ;
b100100 =
1(
#3340000
0(
b101001010 A
#3345000
b110111011010 ;
b100101 =
1(
#3350000
0(
b101001011 A
#3355000
b110111001100 ;
b100110 =
1(
#3360000
0(
b101001100 A
#3365000
b110110111110 ;
b100111 =
1(
#3370000
0(
b101001101 A
#3375000
b110110110000 ;
b101000 =
1(
#3380000
0(
b101001110 A
#3385000
b110110100010 ;
b101001 =
1(
#3390000
0(
b101001111 A
#3395000
b110110010100 ;
b101010 =
1(
#3400000
0(
b101010000 A
#3405000
b110110000110 ;
b101011 =
1(
#3410000
0(
b101010001 A
#3415000
b110101111000 ;
b101100 =
1(
#3420000
0(
b101010010 A
#3425000
b110101101010 ;
b101101 =
1(
#3430000
0(
b101010011 A
#3435000
b110101011100 ;
b101110 =
1(
#3440000
0(
b101010100 A
#3445000
b110101001110 ;
b101111 =
1(
#3450000
0(
b101010101 A
#3455000
b110101000000 ;
b110000 =
1(
#3460000
0(
b101010110 A
#3465000
b110100110010 ;
b110001 =
1(
#3470000
0(
b101010111 A
#3475000
b110100100100 ;
b110010 =
1(
#3480000
0(
b101011000 A
#3485000
b110100010110 ;
b110011 =
1(
#3490000
0(
b101011001 A
#3495000
b110100001000 ;
b110100 =
1(
#3500000
0(
b101011010 A
#3505000
b110011111010 ;
b110101 =
1(
#3510000
0(
b101011011 A
#3515000
b110011101100 ;
b110110 =
1(
#3520000
0(
b101011100 A
#3525000
b110011011110 ;
b110111 =
1(
#3530000
0(
b101011101 A
#3535000
b110011010000 ;
b111000 =
1(
#3540000
0(
b101011110 A
#3545000
b110011000010 ;
b111001 =
1(
#3550000
0(
b101011111 A
#3555000
b110010110100 ;
b111010 =
1(
#3560000
0(
b101100000 A
#3565000
b110010100110 ;
b111011 =
1(
#3570000
0(
b101100001 A
#3575000
b110010011000 ;
b111100 =
1(
#3580000
0(
b101100010 A
#3585000
b110010001010 ;
b111101 =
1(
#3590000
0(
b101100011 A
#3595000
b110001111100 ;
b111110 =
1(
#3600000
0(
b101100100 A
#3605000
b110001101110 ;
b111111 =
1(
#3610000
0(
b101100101 A
#3615000
b110001100000 ;
b1000000 =
1(
